<?xml version="1.0" encoding="UTF-8" standalone="no"?>
<svg
   xmlns:dc="http://purl.org/dc/elements/1.1/"
   xmlns:cc="http://creativecommons.org/ns#"
   xmlns:rdf="http://www.w3.org/1999/02/22-rdf-syntax-ns#"
   xmlns:svg="http://www.w3.org/2000/svg"
   xmlns="http://www.w3.org/2000/svg"
   xmlns:sodipodi="http://sodipodi.sourceforge.net/DTD/sodipodi-0.dtd"
   xmlns:inkscape="http://www.inkscape.org/namespaces/inkscape"
   width="789.78998"
   height="549.83002"
   version="1.1"
   id="svg138"
   sodipodi:docname="Mapa_Republica_Dominicana.svg"
   inkscape:version="0.92.3 (2405546, 2018-03-11)">
  <metadata
     id="metadata144">
    <rdf:RDF>
      <cc:Work
         rdf:about="">
        <dc:format>image/svg+xml</dc:format>
        <dc:type
           rdf:resource="http://purl.org/dc/dcmitype/StillImage" />
        <dc:title></dc:title>
      </cc:Work>
    </rdf:RDF>
  </metadata>
  <defs
     id="defs142" />
  <sodipodi:namedview
     pagecolor="#ffffff"
     bordercolor="#666666"
     borderopacity="1"
     objecttolerance="10"
     gridtolerance="10"
     guidetolerance="10"
     inkscape:pageopacity="0"
     inkscape:pageshadow="2"
     inkscape:window-width="1366"
     inkscape:window-height="745"
     id="namedview140"
     showgrid="false"
     inkscape:zoom="0.6070138"
     inkscape:cx="322.13805"
     inkscape:cy="181.1994"
     inkscape:window-x="-8"
     inkscape:window-y="-8"
     inkscape:window-maximized="1"
     inkscape:current-layer="svg138" />
  <rect
     style="opacity:0.87900002;vector-effect:none;fill:#00ffff;fill-opacity:1;stroke:none;stroke-width:35.37216949;stroke-linecap:butt;stroke-linejoin:miter;stroke-miterlimit:4;stroke-dasharray:none;stroke-dashoffset:0;stroke-opacity:1;paint-order:markers stroke fill"
     id="rect836"
     width="789.78998"
     height="549.83002"
     x="0"
     y="-2.9101561e-006" />
  <g
     transform="translate(-116.97,-123.75)"
     id="g34"
     style="fill:#00ff00;stroke:#000000;stroke-opacity:1">
    <path
       d="m 212.81,660 2.16,-4.94 1.56,-4.06 1.38,-1.25 1.18,-2.19 0.97,-1.31 4.32,0.34 1,1.38 1.56,2.75 1.75,1.81 1.12,0.59 0.22,2 -2.25,2.22 -3.84,2.85 -3.85,1.19 -5.03,0.56 z"
       id="path2"
       style="fill:#00ff00;stroke:#000000;stroke-opacity:1"
       inkscape:connector-curvature="0" />
    <g
       id="g32"
       style="fill:#00ff00;stroke:#000000;stroke-width:0.5;stroke-opacity:1">
      <path
         d="m 179.67,491.83 -7.34,11.5 -5.16,9.84 -1.67,4.33 v 4 h 2.33 l 2.34,2 1.66,3 2.67,2 -1.92,2.17 v 3 l 0.92,1.66 2.5,2.5 -1,4.5 -2.42,4.84 -1.58,2.66 -0.83,1.84 2.41,1 3.42,1.5 2.33,1.83 1.34,2.5 2.33,1.17 4,3.33 2.67,3 2.16,3.17 1.67,5 v 3.16 l -4.5,3 0.67,1.5 3.83,3 2,4.17 2.17,4.33 0.83,4.84 -1.67,3.66 h -3.66 l -1.5,5.5 -5.67,3 2.5,2.17 1.67,0.67 h 5.16 l 5.5,-1.67 6.5,-1.33 7.84,1.16 5,3.34 4.83,4.33 3.5,4.83 0.83,6 1.7,4.83 2.64,2.17 3.16,3 v 2.33 l 2.34,1.84 3,3.66 3.16,-2.5 4.67,-6.83 3.5,-9.33 3,-6.34 2.33,-7.33 2.17,-5.5 2.5,-5.17 3,-4 2.5,-1 2.33,-0.16 v -5.34 l 2,-3 -1.5,-5 -1.66,-4.16 -2,-2.67 v -2.67 l -6,0.67 -3.5,-1.33 -3.67,-1 -5,-0.34 -2.17,-3.83 2,-2.83 -3.66,-2.17 -4.84,-1.17 -1.16,-3 1.83,-2 0.33,-4.5 2.5,-3.33 2.67,-3.5 3.5,-0.33 0.5,-7.17 -2.83,-2.33 0.33,-2.67 3.33,-0.67 1.34,-1.33 -3,-2.83 -3.17,-1.17 -3,-1 -3.33,-2.5 -3,-2 -2,-2.5 -3,-4 -4,-2.33 -3.17,-1.84 -4,0.67 -3.33,-2.17 -6.34,-0.16 -4,-4.84 -7.5,-0.5 -5.83,-4.83 -4.5,-3 -4.67,-2.67 z"
         id="path4"
         style="fill:#00ff00;stroke:#000000;stroke-opacity:1"
         inkscape:connector-curvature="0" />
      <path
         d="m 179.67,491.83 5.16,4.33 4.67,2.67 4.5,3 5.83,4.83 7.5,0.5 4,4.84 6.34,0.16 3.33,2.17 4,-0.67 7.17,4.17 5,6.5 2.75,0.59 1.16,-3.75 3,-1.75 3.42,0.58 5.17,1.75 3,-1.17 1.58,-0.83 -4.5,-10.42 -4.25,-7.58 -0.42,-4 2.25,-3.25 2.5,-2.67 1.92,-0.91 2.5,2 5.25,3.58 4.33,0.67 4.34,2.5 3.5,1 5.33,-3.67 1.5,-3.17 2,-5.33 3,-2 -1.67,-3.17 -4.5,-1.5 -3,-2.66 -1.66,-3.5 -1,-5.17 -4.17,-3.67 -3.17,-2.83 -4.83,3 -7.17,3.5 -7.5,3.5 -4.16,0.83 -1.34,-4.16 -2.33,-4 -4.17,-2.67 h -2.75 l -3.58,-0.83 -1.17,-3.83 -1,-6.17 -3.83,-3 -4.58,-1.5 -6.75,-2.33 -4.5,-1.67 -4,-1.67 -3.67,-3.83 -0.33,-2.5 1.83,-6.17 2.17,-4.66 2.66,-5.5 1.5,-4.84 1.67,-3.16 -3.67,-3.5 -4.5,-1.34 -5.33,1.5 -7.83,-0.66 -5.67,-1.67 L 178,405 h -4.83 l -2.34,0.84 -3.5,-0.84 -2.5,-1 -2.5,3 -1.83,4.5 1,3.34 -1,1.83 -8,0.5 -4,-1.17 -3,1.67 -2.17,-2 -4.5,-3.33 -2.33,2.66 -2.33,0.17 -3.5,-2 -5.34,-1 v 2 l -3.5,2.67 -4.5,2 1,1.66 3.67,0.67 2.5,1.17 3,3 1.83,2.33 1.84,3.33 3.33,4.84 3.67,3.66 3.16,2.67 2.17,2.17 1.17,3.16 -0.5,1.34 -5.34,0.16 v 2.17 l 0.84,2 1.33,3 3,1.17 3.83,2.33 3.5,3.33 2.34,2.34 1.16,4 4,1.16 4.17,3.67 3.67,2.17 3.5,1.66 3.66,1.17 2.84,1 3.5,1.5 2.16,1.5 0.34,1.5 -0.84,2.5 z"
         id="path6"
         style="fill:#00ff00;stroke:#000000;stroke-opacity:1"
         inkscape:connector-curvature="0" />
      <path
         d="m 164.83,404 2.5,1 3.5,0.84 2.34,-0.84 H 178 l 4.5,1.67 5.67,1.67 7.83,0.66 5.33,-1.5 4.5,1.34 3.67,3.5 2.88,-1.34 0.46,-2.62 -0.78,-3.76 1.1,-8.53 -2.62,-2.76 -0.33,-2.21 2.37,-2.66 -0.33,-2.08 -2.58,-2.38 -1.59,-4.88 -4.96,-1.58 -2.2,-0.79 1.91,-4.92 0.17,-5.16 v -3.84 l -3.33,-1 -2.84,-1.66 0.5,-1.84 2.84,-1.16 2.66,-3 1.17,-5.67 -3.33,-1.17 -2.5,-1 3,-1.66 2.16,-2.17 2.17,-2.5 2.17,-1.83 2.83,-1.34 2.66,-0.66 1.84,-3.67 3.83,0.83 2.84,0.67 3.83,-1.5 2.33,-2.33 v -3.67 l 0.84,-5.17 1.83,-1.83 1.67,-2.33 1.5,-4.5 2,-1.34 2,-2.33 v -2.67 l 3.83,-1 h 4 l 2,1.34 1.83,2 h 2.5 l 2,-0.67 3.17,0.83 1.83,0.84 H 262 l 1.5,-1.34 v -12.16 h 3.17 l 2,-2 -2.67,-2.84 -3.33,-1.66 h -3 l -3.17,-2.84 -3.5,-2.83 -3.33,-1.17 -2.34,-1.83 -2.83,-2.5 -3,-3.17 -1.33,-4.66 -3.34,-2.34 -5,-2.33 h -2 l -1.5,2.17 -1,3.33 -1.66,1.83 -2.84,0.17 -2.66,-1.17 -3.42,-0.16 -1.08,1 -2.34,-2.34 -2.83,0.17 -1.33,3.67 -0.17,2.66 -3.17,1.5 h -2.5 l -2.5,2.67 -0.33,3.17 1.5,2.5 -1.17,1.83 0.17,2.17 -1.33,3 -1.34,3.33 -0.16,4.17 -1.34,5.5 -4.66,1 -3.5,1.83 -2.34,3 -1.83,2.67 -0.67,2.83 -4.16,3.5 -4.67,2.33 -3.17,2 -2.16,2.34 -2.84,4.33 -5,0.67 -4.5,-0.34 -2.16,2.17 -4.34,2.83 -3,2.5 -1,3.17 v 1 l 1.17,0.83 3,-1.5 2.67,-1.33 2.16,-1.33 3.5,-1.34 3.67,0.5 1.83,1.67 2.5,1.5 1.84,4.17 1.33,3.33 1.5,2.17 3.17,3.16 3.5,3.5 1.66,4.5 -0.16,4.67 0.5,6.83 -1,7.67 -0.17,4.83 -1.5,5.34 -2.83,2.33 -4.67,0.83 -2.33,1.5 -2.13,3.09 z"
         id="path8"
         style="fill:#00ff00;stroke:#000000;stroke-opacity:1"
         inkscape:connector-curvature="0" />
      <path
         d="m 200.83,281.5 2.5,-2.67 h 2.5 l 3.17,-1.5 0.17,-2.66 1.33,-3.67 2.83,-0.17 2.34,2.34 1.08,-1 3.42,0.16 2.66,1.17 2.84,-0.17 1.66,-1.83 1,-3.33 1.5,-2.17 -1.39,-2.81 -2.75,-2.13 1.5,-2.37 2.37,-1.13 h 2.06 l 1.63,-3.68 -0.87,-2.44 1.56,-2.32 1.73,-3.95 -0.67,-3.34 1.83,-4.33 v -12.17 l 3.17,-6.66 3.5,-1.84 v -4.16 l -3.33,-2 -2.67,-3.34 -3.33,-1 -3.67,-0.83 -2.67,-1.33 -0.83,-3.84 1.17,-4.5 h -2.5 l -3.5,2.67 -1,1.17 -2,-2.84 -5.5,-1 -3.17,-1.66 h -6 l -4.83,1.33 -5.84,1 -3.66,-2.33 -2.5,-3.34 -5.34,-1.33 -3.83,1.83 v 4.17 l -0.83,4 v 2.83 l 3.66,3.34 3.34,3.5 0.16,3 1.67,3.83 2.33,3.17 -0.5,3.16 -0.5,2.17 v 3.17 l 2.5,2.66 1,5.17 -2.33,4.83 -1.33,3.34 -0.84,2 1.34,3.83 v 2 l -2.34,1 -2.5,-2.5 -3.33,1.83 -2.33,1.34 -1.5,2.33 -2,1.17 h -3.67 l -1,1.83 v 3.17 l 2.17,1.16 1.16,3.17 1.67,2 0.83,2.83 1.67,1.34 2.17,0.83 2,-0.33 2.16,2.16 1,2.84 4.5,3 4,0.83 3.84,0.83 z"
         id="path10"
         style="fill:#00ff00;stroke:#000000;stroke-opacity:1"
         inkscape:connector-curvature="0" />
      <path
         d="m 182.33,189.5 5.34,1.33 2.5,3.34 3.66,2.33 5.84,-1 4.83,-1.33 h 6 l 3.17,1.66 5.5,1 2,2.84 1,-1.17 3.5,-2.67 h 2.5 l -1.17,4.5 0.83,3.84 2.96,1.4 3.38,0.76 3.33,1 2.67,3.34 3.33,2 h 2.5 l 2.17,-4.17 1,-1.83 3.5,0.83 3.66,1.17 3.17,-1 2.67,1.33 3.33,0.33 1.17,-2.83 2.5,-0.17 5,2.34 2.83,1.5 2.83,2.5 1.34,1.33 3.83,1 2.17,0.83 1.66,-4.16 2,-1.5 1.84,0.66 h 3.5 l 2,-2.66 1.66,-4 v -3.84 l -3,-3.5 0.34,-3.16 2.66,-1 2.17,-2.34 0.67,-4.16 -2,-5 2,-3 v -6.67 l 2,-3.83 2.33,-4.34 v -3 l -5.67,-0.83 h -5.66 l -3.34,-2.33 -3.66,-2.5 -2.67,-2.84 -2.83,-2.66 -4.34,-1.5 -3,-2 -3.16,-1.84 -7.84,-0.83 -5.5,-0.67 -4.33,-2 -5,-2.16 -5.33,-2.34 -3.67,-2.33 -5.5,-3.33 -5.17,-1 H 219 l -4,0.83 -3,-0.83 -3.17,1.83 h -2.33 l -2.83,4.5 -3.5,-0.5 -0.17,-3 h -3.83 l -0.67,2.83 1.67,2.34 -1,2.83 -2.5,2.83 -3.17,1.17 -3,2.17 -0.5,1.66 -3.5,0.84 H 179 l -2.33,3.83 -0.67,5.5 1.67,5.33 2.33,4.17 0.67,3.67 0.5,2.83 2.66,3.5 -3,-0.67 -2.83,-1.83 -2.83,2.83 1.16,3.84 2.5,4 1.7,1.8 0.22,1.84 z m 333,207.67 -1.5,2.33 -0.83,3 2.33,2.5 1.5,3.17 v 3 l 1.17,4.33 2.17,2.5 v 2 l -2.84,1.17 0.67,4.16 -0.67,2.84 0.17,2.66 2.67,5.17 2.5,2.33 1,2.5 -0.67,2.5 3.67,1.34 h 4.83 l 1.83,1.83 1,1.67 V 453 l -0.27,1.06 0.27,0.77 1.13,1.88 1.71,0.29 1.5,-1.33 1.66,0.83 1.67,1.67 h 4.67 l 1.25,1.95 0.27,3.38 -0.02,4 h 2 l 2.46,0.29 5.56,-0.48 6.75,-3.75 4.81,-3.31 6.87,-2.69 5.88,-0.68 4.33,0.95 4.84,0.17 h 4.95 l 7,-0.12 5.07,1.56 3.81,0.56 3,1.17 1,3.33 1.67,3.33 2.33,2.42 3.06,1.44 3.77,0.81 2.05,-0.38 -1.32,-5.81 1.11,-3.14 2.83,-1.34 4.33,0.34 4.5,3 1.34,1 2.33,2.5 2.67,2.5 h 3.66 l 1.5,-2 V 461 l 0.84,-4.67 -6.5,-0.33 -2.67,-0.83 -3.67,-1.17 -3.33,-2 -2.17,-3 -0.16,-3.67 0.5,-4.16 2.66,-5.5 1.84,-2.67 0.66,-2.33 -2,-1.84 0.17,-4.66 0.67,-4.34 1.66,-3 1.17,-1.83 -4.33,-0.33 -3.67,-1 -3.83,-1.84 -3.25,1.17 -3.25,2.08 -3.25,1.59 -2.84,1.08 -8.41,0.25 -2.83,1.42 -2.92,2.91 -0.08,1.42 -0.67,2.17 -2.67,3 -3.08,2.41 -2.58,0.17 -0.09,-3.5 -0.17,-3.33 -1.33,-2.34 -3.37,-0.45 -2,-2.26 0.24,-2.24 -1.12,-2.38 -1.62,-1.38 -1.8,-2.5 -2.2,-3.12 -2.26,-2.62 -1.37,-2.26 h -3.63 l -2.24,1 -2.38,1.88 -2.38,-0.75 -2.87,-1.5 h -1.87 l -1.76,-0.75 -1.37,-1 0.25,2.25 -0.12,2 -1.88,0.87 -1.75,1.76 -1.63,1.62 -2.37,1.5 h -3.37 l -2.26,1.5 -2.12,-0.12 -3,-0.76 -1,-1.62 -2.5,-1.88 -3.75,-1 -3.63,-0.24 -2.24,-1.5 -2.13,-2.13 -2.25,-2 -2.62,-2.13 -1.63,-1.74 z"
         id="path12"
         style="fill:#00ff00;stroke:#000000;stroke-opacity:1"
         inkscape:connector-curvature="0" />
      <path
         d="m 307,163.33 -4.33,8.17 v 6.67 l -2,3 2,5 -0.67,4.16 -2.17,2.34 -2.66,1 -0.34,3.16 3,3.5 v 3.84 l -1.66,4 -2,2.66 v 6.86 l 1.08,2.43 1.06,6.63 h 5.81 l 5.5,1.56 7.57,0.75 h 3.5 l 4.12,2.94 2.5,1.56 2.44,-0.44 3.63,-1.06 2.81,0.06 1,1.88 0.43,2.31 2.57,-0.93 1.19,-3.76 h 3 l 4.24,0.44 2.76,2.06 2.18,1.13 2.38,-2.19 2.75,-0.12 2.43,0.18 v -3.06 l -2.81,-1.56 -1.56,-2.44 -0.94,-3 1.63,-3.25 1.81,-1.75 -0.31,-4.62 -3.06,-1.38 -2,-1.37 -1.19,-2.69 0.37,-2.38 1.13,-1.56 2.31,1.69 1.81,1.69 1.31,-1.38 1.82,-3.18 v -3.69 l -0.82,-2.57 -0.87,-5.24 -0.87,-3.44 -4.94,-1.06 -2.32,-3.07 -3,-0.87 -2.93,-0.69 -2.75,-2.75 -2.56,-2.44 -3.69,-2.06 -5.63,0.06 -2.75,-1.31 h -3.75 l -1.75,-1.63 -1,-2.18 -0.87,-1.75 -2.94,-0.88 -5.06,-1.37 -2.44,-0.82 z"
         id="path14"
         style="fill:#00ff00;stroke:#000000;stroke-opacity:1"
         inkscape:connector-curvature="0" />
      <path
         d="m 283.17,149.17 0.33,-2.55 3.06,-1.12 2.82,-0.69 1.43,-1.81 v -2.38 l 1.5,-2.31 2.81,1.25 0.44,1.25 3.32,0.25 3.68,-0.87 4.88,-0.31 3.18,-0.76 2.19,-0.06 3.19,-1.37 2.56,-1.88 0.38,-2.93 1.62,-2.19 3.19,-3.25 4.25,-1.44 4.12,-2 6.07,0.38 4.43,3.06 3.88,2.06 3.31,0.06 1.69,-1 5.06,1.69 5.19,0.31 3.5,0.32 3.13,-1.07 1.81,0.07 0.81,2.87 0.88,1.25 3.62,1.12 3.38,2.63 2,3.5 1.5,1.87 V 148 l 2.24,-1.12 3.13,-0.76 H 390 l 2.38,1.5 3.37,2.76 3.25,1.62 2.25,3 h 3 l 2.63,2.12 3.87,1.63 1.5,1.87 2.13,2 3.62,-0.62 2.62,2.25 h 3.5 l 5.88,-0.92 3.38,1.92 4.5,-1.92 2.5,-3.45 2.24,-0.88 6.38,-1.25 4.38,0.25 4.24,2 1.88,3.33 3.12,3.05 2.26,1.12 2.74,2.5 2.13,3.88 0.87,3 -2.62,1.62 1.38,2.12 -0.13,2.76 -3.13,1 -1.12,2.37 h -9.12 l -0.76,-2.13 -2.74,1 -1.63,2.5 -2.75,3.63 -1.38,2.25 -3.24,0.88 h -2.26 l -0.24,2.62 1.62,3.25 1.38,4.75 v 4.12 l -2.13,1.26 -1.63,-3 -2.5,-3.13 -2.74,2.63 -0.13,3.5 0.25,3.87 -1.25,3.75 -2.5,-2.5 -2.87,-1.25 -3.63,-1.37 -6.13,-0.26 -1.87,-3 -1,-2.5 0.25,-5.62 -0.62,-4 -4.63,-2.88 -4.13,-0.87 -1.87,-2 -1.87,-3 -2.76,0.63 -0.37,3.24 0.13,3 -0.38,3.7 -2.12,2.56 -4.38,1.24 -3.25,-0.12 -0.25,-3.68 h -3.12 l -1.38,-2.44 -3.75,-3 -4.35,-1.76 -5.52,-2.5 -4.26,-0.62 -3.62,-1.5 -3,-1.12 -1.62,1.06 -4.94,-1.06 -2.32,-3.07 -5.93,-1.56 -5.31,-5.19 -3.69,-2.06 -5.63,0.06 -2.75,-1.31 h -3.75 l -1.75,-1.63 -1.87,-3.93 -10.44,-3.07 -3.5,-1.79 v -3 l -5.67,-0.83 h -5.66 l -7,-4.83 z m 476.21,329.08 -2.75,3.25 0.54,2.17 1.96,2.21 2.37,0.62 1.67,-0.67 0.5,-2.75 -0.92,-2.12 -1.29,-0.63 v -1.7 l -1.54,-0.38 z m 48.62,40.5 v 4.583 l 2.166,2.334 2.084,1.833 1.333,2.833 1.083,1.417 3.334,0.917 3.166,0.5 3.584,1.25 2.75,1.416 h 2.333 l 2.167,-1.416 3.333,-0.167 2.25,-1.5 4,-0.167 3.083,1 2.667,2.25 h 3.167 l 1,1.75 h 2.833 v -2.5 l 0.833,-3.666 -1.833,-1.917 c 0,0 -2,-2.25 -2.083,-1.917 -0.083,0.333 -2.08,-0.5 -2.084,-0.5 l -1.333,-2.583 -2.917,0.417 -1.333,0.583 -4.25,0.417 -2.917,-0.417 -2.166,-1.167 -2.667,-2.25 -2.167,0.584 -2.666,0.666 -2.584,-0.916 -4,-1.167 -2.666,-1.833 -3.75,-1.417 h -3 z m -65.33,-44.92 0.66,-9.33 -3.66,-3.67 -2.67,-3 v -3.5 l 1.67,-2.83 3.33,-4 0.33,-2.5 2.67,-1.83 h 3.17 l 4,-3.67 2.16,-2.83 v -2.84 l 3.17,-0.83 3.83,-3 2.34,-5.67 3.5,-3.5 v -3 l 1.5,-3 v -1.5 l 3.83,-1.16 2.33,1.16 3.34,1.17 0.83,2.5 2,2 1.17,4 v 2.33 l 1.83,0.84 1.67,3.16 1.83,3.67 2.5,1.67 2.83,2.33 1.17,3 v 1.83 l 2,2.5 -1.17,3.5 -1.66,3.67 -3.5,3.83 -0.84,3.5 -2.16,2.84 v 2.16 L 786,468 l -1.5,2 -1.17,2.83 -3.66,-0.33 -3.17,-0.83 -3.33,-0.67 -2.84,-1.5 -2.83,1.5 -1,1.83 -3.67,-1 -1.83,2 h -10.33 l -1.34,0.67 h -4 z"
         id="path16"
         style="fill:#00ff00;stroke:#000000;stroke-opacity:1"
         inkscape:connector-curvature="0" />
      <path
         d="m 809.5,344.17 4.5,1.16 4.33,2.5 5.17,3.34 3.5,3.33 6,5.33 3.67,3.84 8.5,8.5 3.5,4.33 8,6.5 4.5,3.33 2.83,1.67 3.5,3 5,3.33 4.67,2.17 2.83,4.33 5.17,3.5 3.16,3.84 3.17,4 h 4.83 l 2.84,3.16 3,0.84 1.83,2.5 2.5,4.16 -0.83,8 -2.17,5.34 -3.5,4.5 -1.67,3.5 -1.83,4.16 -3,1.67 -1.17,3.33 -1.66,3.67 -3.67,3.83 -4.5,4.17 -2.67,4.17 v 5.33 l 0.34,5.17 -2.67,4 -3.17,1.83 h -6.5 l -4.16,-1.83 -5.67,-1.29 -4.33,-2.38 -3.34,-2.67 -4.16,-0.16 -2,3.33 1.66,3.33 1,2.67 -0.33,3.33 -3.5,5.67 -2.33,3.33 -0.84,4 -0.66,4 0.16,5 -1.66,2.5 -3.5,-0.83 -2.59,0.83 -2.75,1.5 h -5.33 l -3.83,-2.66 -4.34,-1 -2,-3.84 -2.66,-2.83 -2.67,-5.33 -3,-4.34 -1,-4.33 -1.5,-3 -1.83,-2.83 -3.34,-1.84 -1.33,-3.66 -2.67,-2.67 -2.83,-1.17 -3.83,-1.83 -3.34,-1.67 1.17,-2.83 1.5,-2 0.67,-4.17 v -2.16 l 2.16,-2.84 0.84,-3.5 3.5,-3.83 1.66,-3.67 1.17,-3.5 -2,-2.5 V 440 l -1.17,-3 -2.83,-2.33 -2.5,-1.67 -1.83,-3.67 -1.67,-3.16 -1.83,-0.84 V 423 l -1.17,-4 -2,-2 -0.83,-2.5 v -3.83 l -1.55,-1.67 -0.37,-0.79 1.13,-1.42 0.83,-1.37 -0.71,-2.25 0.29,-2.13 1.54,-1.12 2.88,-1.04 4.62,0.08 1.17,0.71 2.46,-0.54 1.29,-1.38 1.17,-2 1.04,-1.96 0.42,-4.41 2.5,-2.5 4.37,-2.26 2.13,-0.62 1.12,-2.38 -1.62,-3.74 -0.13,-2.76 -0.25,-4.12 -2,-3.38 -0.62,-3.37 -1.38,-4.13 h -1.88 V 359 l 1.76,-1.25 2.24,-1.25 1.13,-2 0.06,-2.5 1.13,-1.88 L 807,347 Z M 642,415 l 2.25,-3.12 1.06,-4.38 1.63,-4.06 1.5,-7.19 2.06,-2.5 2,-2.94 2.38,-1.06 0.81,-1.81 1.37,-2.19 V 384 l 1.13,-1.94 3.5,-2.25 2.37,-2.06 1,1.75 v 1.75 l -0.56,1.37 -0.69,3.19 1.25,4.57 1.56,0.74 1.5,-0.43 v 3.93 l 1,1.76 0.94,1.37 0.32,3.31 -0.38,3.75 1.12,1.5 -0.37,1.81 -1.5,1.82 -0.31,1.75 1.56,1.93 1.5,2.76 0.75,1.5 h 2.13 l 0.87,3.37 -0.75,2.63 2,1.24 2.5,2.26 1.5,2 v 6.24 l 2.12,2.88 0.76,2.75 2.74,2.08 h 2 l 1.63,-3.33 3.37,-2 2.13,-3.17 1.87,-0.95 0.63,-4 -0.87,-1.5 1.62,-1.88 v -2.88 l 1.25,-1.62 2.63,-0.88 3.37,-1 2.87,-1.12 v -3.5 l 1.63,-2 2.25,-2.38 1.38,-1.5 1.87,2.55 v 6.21 l 2.13,-0.13 1.74,1 v 2 h 2.38 l 2.62,1.37 1.38,1.88 1.62,1.62 1.5,2 2.38,0.5 5,0.26 h 9.88 v 4 l -1.5,1.95 -0.5,2.55 0.12,4.24 v 1.55 l -2.67,1.83 -0.33,2.5 -3.33,4 -1.67,2.83 v 3.5 l 2.67,3 3.66,3.67 -0.66,9.33 h -3.79 l -4.82,-2.33 -5.06,-0.38 -3.44,-1.31 -3.62,-1.31 -1.44,-2.25 -2.19,-4.06 -5.93,-0.5 -1.44,1.25 -5.5,0.62 -4.82,0.25 -1.43,1 -3.75,-1.31 -2.63,-0.81 -0.25,3.43 -1.87,0.88 h -4.13 l -1.81,0.88 -3.63,-1.19 -11.5,0.75 -1.24,0.37 -4.26,0.69 -2.68,0.62 -2.75,1 -4.5,1.07 -1.86,-2.02 V 461 l 0.84,-4.67 -6.5,-0.33 -6.34,-2 -3.33,-2 -2.17,-3 -0.16,-3.67 0.5,-4.16 2.66,-5.5 1.84,-2.67 0.66,-2.33 -2,-1.84 0.17,-4.66 0.67,-4.34 1.66,-3 z m -221,82.5 8,-0.83 h 3.67 l 4.5,-1.34 4.16,-2 0.75,-3.25 -0.41,-9.08 1.5,-3.58 1.91,-2.5 1,-5.67 -1.25,-1.75 0.17,-3.08 3.17,-1.25 0.58,-3.25 1.92,-1.67 4.66,-0.5 2.17,-1.83 h 2.5 l 4.08,-2.34 3.75,-0.5 1.59,-2 2.33,-3.5 2.08,-1.16 3.5,1.5 3.34,2.08 2.66,1.75 2.42,2.17 1.5,1.91 v 2.25 l 0.58,1.42 1.5,0.42 2.42,0.91 0.58,2 2.25,0.75 2,1.92 0.5,1.92 -1.75,3.16 -2.91,0.34 -2.75,1.5 -0.92,1.5 1.83,1.66 0.42,2.25 1.17,1.75 2.08,0.17 H 496 l 0.08,3.83 1,2.17 1.17,2.42 1.92,1.33 1.16,2.25 1.42,0.92 1.17,2.58 v 2.25 h 3.58 l 0.92,1.25 0.75,5.08 -1.25,1.92 -0.92,2.58 h -5.08 l -3.67,1.25 -3.75,0.5 -1.83,-1.16 -2,-1 -2.42,-0.75 -3.67,0.16 -2.5,1.92 h -4 l -1.83,0.83 -2.5,-1.16 h -6.67 l -3.33,-1.25 h -3.25 l -3.5,1.58 -2.75,0.83 -2.83,2.25 -3.25,1.84 -4.34,1.25 -3.66,1.5 -3.59,-0.34 -2,-0.16 h -3.75 l -2.08,-0.92 -2.67,-0.92 -0.41,-1.83 2.33,-2.92 0.67,2 2.25,0.5 2,-0.58 1.83,-0.08 1.5,-1.09 -1.25,-1.5 -3.5,-0.91 -2.25,-2.92 -1.5,-1.92 -3.08,-1.41 -1.92,-0.5 -0.75,-1.59 z"
         id="path18"
         style="fill:#00ff00;stroke:#000000;stroke-opacity:1"
         inkscape:connector-curvature="0" />
      <path
         d="m 473.83,446.42 -0.91,-2.17 -1.67,-2.58 -2.08,-2.42 -0.67,-2.25 0.58,-3.25 1.25,-2.42 0.84,-3.58 v -2.67 l -0.67,-4.5 -1.67,-3.58 0.09,-3 0.66,-1.83 1.17,-1.75 1.42,-2.42 0.58,-3 0.67,-3.33 0.41,-1.59 1.09,-1.75 -2.09,-2.41 -3.16,-0.67 -1.75,-1.33 -1.92,-1.84 -2.5,-1.41 -2.08,-0.5 h -4.09 l -2.33,-1.42 -2.42,-1.42 -3,-0.41 h -5 l -2.33,0.41 -0.83,-1.75 -1.25,-2.5 -1.42,-1.33 h -2.42 l -1.5,0.75 -0.83,1.5 v 1.5 l 1,1.5 v 2.08 l -1,1.84 -2.08,0.91 -1.84,1.09 -0.66,1.75 -3,2.83 -1.92,1.42 -2.42,1.75 v 1.91 l 0.75,0.34 -0.16,2.08 -1.92,1.08 -3.83,-0.58 -2.67,-0.33 -2.58,-1.42 -1.25,0.42 -6,2 V 409 l 1.91,1 0.5,2.33 0.17,3.67 0.33,1.83 -1.83,5.17 v 2 l 1.33,2.67 4.5,2 3.5,1.83 0.67,3.33 0.67,3 1,1.5 2.16,0.67 h 3.84 l 1.83,2.83 3.33,0.34 2.5,1.66 2.34,2.5 3.16,1.5 H 441 v 2.5 l -1.33,2.5 1.83,1.84 0.17,2.66 1.83,3.98 0.31,2.07 1.19,0.04 3.17,-1.25 0.58,-3.25 1.92,-1.67 4.66,-0.5 2.17,-1.83 h 2.5 l 4.08,-2.34 3.75,-0.5 1.59,-2 2.33,-3.5 z m -3.21,-269.54 4.38,4.5 4.62,3.87 4.63,3.5 6,2 5.25,0.87 h 8 l 2.62,2.88 7.13,2.5 H 519 l 4.62,-1.12 5.38,-1.38 2.62,-1.38 1.13,5.76 -1.13,3.87 -2.24,3.75 -3.63,1.5 -5.5,3.25 -6,1.13 h -6 L 507,215 l 0.88,3.5 -0.5,1.25 H 494 L 490.5,217 h -2.12 v -3.88 l -2.38,-1.5 -3.88,-1.37 -3.87,2.13 -2,4 -0.25,2.12 -3.12,0.62 -2.26,-1.74 -3.5,-1.38 -2.37,-1.25 -2.75,-3.75 -2.12,2.75 -0.63,2.37 -2.25,3.63 -1.88,2.87 0.88,2.88 1.88,2.62 0.12,4.5 1.5,0.63 -0.12,3.63 -1.63,1.5 -1,5.12 -1.63,2.38 v 3.24 l -1.62,3.76 -1.12,3.12 -0.63,2.88 -2.37,1.5 v 4.74 H 446 l -2.25,0.88 v -4.88 l 2,-2.24 -2,-1.13 -1.75,-1 -1.5,-0.75 h -2 l -2.88,1.38 -9.87,-0.76 -2.63,-1.12 -4.74,-2.88 2.24,-3.24 2.38,-1.5 2.25,-0.63 v -3 l -1.37,-2 0.12,-3.5 1.62,-2.75 1.26,-3.25 v -5.13 l 2.74,-2.62 3.5,-0.25 0.88,-4 -0.25,-2.25 1.25,-3.75 -0.25,-3.87 0.13,-3.5 2.74,-2.63 2.5,3.13 1.63,3 2.13,-1.26 v -4.12 l -1.38,-4.75 -1.62,-3.25 0.24,-2.62 h 2.26 l 3.24,-0.88 1.38,-2.25 2.75,-3.63 1.63,-2.5 2.74,-1 0.76,2.13 H 465 l 1.12,-2.37 3.13,-1 0.13,-2.76 -1.38,-2.12 z"
         id="path20"
         style="fill:#00ff00;stroke:#000000;stroke-opacity:1"
         inkscape:connector-curvature="0" />
      <path
         d="m 531.62,193.12 3.88,-4.45 2.17,-2.34 5.33,-1.5 h 10.25 l 0.75,-1.08 h 4.08 l 1.42,1.5 2.42,1.5 1.16,0.75 v 2.5 l 2.42,1.08 2.08,0.25 3.17,1.79 1.83,2.96 1.5,3.59 v 3.75 l -1,2.25 -1,1.16 v 3.67 l -1.66,2.83 -0.42,2.25 2.5,2.92 1.58,2 1.42,0.94 1.5,2.31 v 6.17 l -0.83,2.16 0.25,5.59 2.41,5.16 1.75,4 1.84,4.42 1.58,3.92 2.25,2.5 1.42,0.75 0.91,2.5 3.34,3.91 2.58,2.75 2.5,2.5 3.58,1.59 2.09,1.25 v 13.41 l -3.42,1.34 -1.67,2.58 -2.08,1.92 h -3.17 l -2.91,-2.67 -6,-0.33 -4.59,-3.92 -5.66,-0.33 -2.92,-2.75 -3.1,-0.5 -1.4,-2.09 -0.92,0.59 -1.66,0.91 -2.42,-1.33 -4.08,-3 -6.92,-0.5 -2.5,-1.42 -2.17,-0.58 0.17,-2.25 0.75,-4.17 -0.33,-3.66 -5.5,-0.42 -2.17,-1.91 -4.75,-1.26 -3,-1.41 -2.92,-0.59 1.67,-2.83 1,-3.33 1.42,-3.17 1,-2.41 0.33,-3.5 -3.5,-3.42 -3.92,-0.75 -1.5,1.41 -3.75,0.25 v -2.87 l 1.09,-1.79 1.25,-2.42 0.5,-3 -1.5,-3.25 -0.75,-1.75 -1.09,-2.83 -2.33,-1 -3.42,-0.92 -5.08,-0.08 -1.37,-1.17 0.5,-1.25 -0.88,-3.5 1.25,-2.62 h 6 l 6,-1.13 5.5,-3.25 3.63,-1.5 2.24,-3.75 1.13,-3.87 z"
         id="path22"
         style="fill:#00ff00;stroke:#000000;stroke-opacity:1"
         inkscape:connector-curvature="0" />
      <path
         d="m 602.67,272.92 3.667,2.208 2.833,0.333 3.542,-0.167 4.875,-1.542 4.875,-1.625 5.917,-1.5 3.416,0.333 4.709,-0.333 1.5,-0.958 2.166,-2 3,-2.333 5.334,-1 h 9 l 5,0.833 5.333,0.167 2.833,1.333 3.5,-1.167 1.834,1.333 3.333,1.167 2.833,0.667 3.667,1.229 2.333,2.771 2.5,0.667 1.834,-1.167 0.666,-2.271 2.334,-2.396 3.5,-3.167 2.666,-1.667 h 3.334 l 1.333,-1.5 2.333,-1.167 1.5,-2 v -2.833 h 2.334 l 1.666,1.167 2.5,1 v 2.5 l -2.166,2.667 -2,2 -1.834,2.667 -1.833,2.834 -0.833,2.167 1.333,1.167 3.667,0.167 2.666,-1.167 3.167,-0.833 4.5,-0.333 1.833,-1.5 2.334,-0.167 1.666,1.167 0.667,3.833 -0.667,2.833 -2.666,2.5 -2.834,2 -3.333,2.333 -2.667,2.5 -0.5,2.167 -0.166,3.334 -1.834,3.666 -4.166,2.166 h -4.834 l -5.666,-2.167 -4.5,-1.833 -3.5,-0.833 h -2 l -3.5,1 h -8 l -2.667,0.167 -1.5,1.167 h -2 l -1,-1.167 -2.167,0.5 -1.333,-1.167 -3.167,-1.5 -3.333,-0.667 -2.833,-0.5 h -4.667 l -3.333,-0.833 -4.834,-0.333 -5,-0.167 -3,-0.833 h -2.666 l -3.167,-1.333 -3,-0.333 -1.333,1.5 -0.334,2.332 -1,4.167 1.667,2.833 -1.333,2.833 -0.5,2.833 -0.334,3.334 -1,2.167 0.167,2.5 -1.5,3.167 1,2.833 2.5,1.333 h 3.667 l 1.833,2 0.167,2.833 -1.5,6 -1.834,4.667 -1.166,2.833 -2.334,1.167 -2.166,-2.667 -3.334,-1.833 -3.5,-2.5 -2.166,-2.167 -3,-2 -0.167,-5.833 -1.667,-2.833 -2.333,-1.5 c 0,0 0.167,-3.5 0.167,-4 0,-0.5 -2.33,-2.17 -2.334,-2.167 l -2,-2.667 -1,-2.167 0.667,-1.833 1.667,0.167 1.166,1 h 2.834 l 2.166,-2.167 2.5,-2.333 2.667,-3.333 2.667,-2.333 1.833,-1 1.833,-0.667 -1,-3 -4.833,-2 -3.167,-0.167 -4.833,-1.5 -4.833,-0.167 -1.334,-0.499 z"
         id="path24"
         style="fill:#00ff00;stroke:#000000;stroke-opacity:1"
         inkscape:connector-curvature="0" />
      <path
         d="m 631,319 3.96,0.17 3.5,-1.34 2.83,-1.33 1.96,0.79 4.13,1.63 3.37,-0.42 2.04,-0.88 4.71,1.55 4.21,-0.42 3.5,2.25 1.75,-0.67 1.5,-2.91 -0.63,-3.04 h 7.42 l 2.79,1.33 1.04,2.41 1.42,4.38 3.75,2.5 h 3.5 l 3.02,1.25 h 5.98 l 4.25,2.75 2.75,1.5 2,1.75 h 9.75 l 3.25,1.5 4,1.5 h 1.75 l -0.96,3.75 -0.16,1.79 0.37,2.21 1.58,2.67 1.71,1.71 5.29,3.87 3.17,1.33 1.33,2.25 -2.83,1.75 -6.58,0.42 -4.42,-2.75 -3.58,-2.08 -7,-0.17 -1.34,-2.58 -2.91,-2.09 -3.84,-0.75 -4.33,0.5 -4.92,3.09 -0.91,2.5 -0.25,2.16 0.16,3.84 -1,2.08 -0.5,2.08 3.92,2.09 4.33,1.33 0.92,5.5 3.92,0.33 2,1.92 1.21,4.88 2.12,1.37 2.5,1.37 3,2.38 1,3 2.62,4.25 0.38,3.5 0.12,4.63 -1.24,1.87 h -4.63 l -0.13,3.5 v 2.87 l -0.24,2 -3.63,3.88 -1.63,2 v 3.5 l -8.87,3 -1.25,1.62 v 2.88 l -1.62,1.88 0.87,1.5 -0.63,4 -1.87,0.95 -2.13,3.17 -3.37,2 -1.63,3.33 h -2 l -2.74,-2.08 -0.76,-2.75 -2.12,-2.88 v -6.24 l -1.5,-2 -2.5,-2.26 -2,-1.24 0.75,-2.63 -0.87,-3.37 h -2.13 l -0.75,-1.5 -1.5,-2.76 -1.56,-1.93 0.31,-1.75 1.5,-1.82 0.37,-1.81 -1.12,-1.5 0.38,-3.75 -0.32,-3.31 -0.94,-1.37 -1,-1.76 v -3.93 l -1.5,0.43 -1.56,-0.74 -1.25,-4.57 0.69,-3.19 0.56,-1.37 v -1.75 l -1,-1.75 3.56,-1 2.5,-2.13 2.5,-1.93 0.88,-1.44 3.38,-0.25 0.74,-1.62 0.5,-2.94 1,-0.69 3,0.06 1.32,-1.25 0.48,-2.87 -1.86,-0.88 -2.94,0.88 -3.18,0.25 -1.13,-1 h -1.62 l -1.38,0.68 -1.75,0.07 -1.94,-2.13 -1.87,-2 -2.37,-1.62 -2.94,-1.44 -2.06,-2 -2.07,-2.12 -1.37,-1.76 -1.82,0.26 -0.37,1.5 -1.31,-0.26 -2.56,-1.87 -2.57,-2.13 -3.56,-2.37 -3.5,-2.31 -3.81,-2 -3.82,-0.94 -3.47,-0.25 -2.48,0.25 2.33,-1.17 3,-7.5 1.5,-6 -0.17,-2.83 z"
         id="path26"
         style="fill:#00ff00;stroke:#000000;stroke-opacity:1"
         inkscape:connector-curvature="0" />
      <path
         d="m 724.5,335.25 2.33,-0.54 2.63,-0.83 1.08,2.83 0.79,1.54 1.29,-0.42 0.92,-1.41 v -4.54 l -1.25,-1.71 0.25,-1.67 h -2.5 l 1.67,-0.88 1.41,-0.62 1.38,0.92 1.54,2.12 0.58,1.5 1.05,2.21 0.83,1.46 2.92,0.08 1.2,1.54 2.84,2.17 1.21,0.96 h 14.45 L 762,339 l -0.46,-2.79 -1.29,-1.42 0.13,-1.31 h 1.33 l 1.87,0.44 2.92,0.08 v -2.33 l 2.83,-0.17 1.5,-1.83 1.84,1 2.5,-0.5 2.83,0.16 2.67,0.67 3.5,2.48 2.5,1.52 3,2 3.66,1.5 h 4.34 l 4.33,1.46 3.17,1.21 3.66,1.33 0.67,1.67 -2.5,2.83 -4.06,3.12 -1.13,1.88 -0.06,2.5 -1.13,2 -2.24,1.25 -1.76,1.25 v 1.12 h 1.88 l 1.38,4.13 0.62,3.37 2,3.38 0.38,6.88 1.62,3.74 -1.12,2.38 -2.13,0.62 -4.37,2.26 -2.5,2.5 -0.42,4.41 -2.21,3.96 -1.29,1.38 -2.46,0.54 -1.17,-0.71 -4.62,-0.08 -2.88,1.04 -1.54,1.12 -0.29,2.13 0.71,2.25 -0.83,1.37 -1.13,1.42 0.37,0.79 1.55,1.67 v 3.83 l -3.34,-1.17 -2.33,-1.16 -3.83,1.16 v 1.5 l -1.5,3 v 3 l -3.5,3.5 -2.34,5.67 -3.83,3 -3.17,0.83 v 2.84 l -2.16,2.83 -4,3.67 H 745 l -0.12,-5.79 0.5,-2.55 1.5,-1.95 v -4 H 737 l -5,-0.26 -2.38,-0.5 -1.5,-2 -1.62,-1.62 -1.38,-1.88 -2.62,-1.37 h -2.38 v -2 l -1.74,-1 -2.13,0.13 v -6.21 l -1.87,-2.55 0.24,-2 v -2.87 l 0.13,-3.5 h 4.63 l 1.24,-1.87 -0.12,-4.63 -0.38,-3.5 -2.62,-4.25 -1,-3 -3,-2.38 -2.5,-1.37 -2.12,-1.37 -1.21,-4.88 -2,-1.92 -3.92,-0.33 -0.92,-5.5 -4.33,-1.33 -3.92,-2.09 0.5,-2.08 1,-2.08 -0.16,-3.84 0.25,-2.16 0.91,-2.5 4.92,-3.09 4.33,-0.5 3.84,0.75 2.91,2.09 1.34,2.58 7,0.17 3.58,2.08 4.42,2.75 6.58,-0.42 2.83,-1.75 -1.33,-2.25 -3.17,-1.33 -5.29,-3.87 -1.71,-1.71 -1.58,-2.67 -0.37,-2.21 0.16,-1.79 z M 507,508.33 h 1.562 l 0.604,0.792 1.396,1 1.438,-0.896 h 5 l 1,-1.479 0.875,-2.25 0.562,-2 2.125,-1.688 1.188,-0.938 0.562,-2.125 1.5,-1.875 0.5,-1.5 1.5,-1.312 h 2.062 l 2.312,-3.25 1.625,-2.562 1.375,-2.938 1.625,-2.875 1.688,-3.75 2.375,-2.062 2.625,-2.562 1.188,-2.188 1.063,-1.875 1.938,-1.125 1.479,-1.375 0.021,-4 -0.271,-3.375 -1.25,-1.959 H 542 l -1.666,-1.666 -1.667,-0.834 -1.5,1.334 -1.706,-0.289 -1.127,-1.878 -0.271,-0.771 0.271,-1.062 v -4.834 l -1,-1.666 -1.834,-1.834 h -4.833 L 523,443.33 l 0.667,-2.5 -1,-2.5 -2.5,-2.333 -2.667,-5.167 -0.166,-2.667 0.666,-2.833 -0.666,-4.167 2.833,-1.166 v -2 l -2.167,-2.5 -1.166,-4.334 v -3 l -1.5,-3.166 -2.334,-2.5 0.834,-3 1.5,-2.334 -1.833,-2.83 -3.083,-2.167 -3,-2.583 -3.167,-0.584 -0.833,-1.666 -2.25,-2.667 -1.5,-2.918 -3.417,-1.248 -2.75,1.248 -3.75,1.252 -3.5,3.25 -1.667,2.584 1.083,2.083 0.25,2.917 c 0,0 -1.17,2.75 -1.333,2.75 -0.163,0 -2.75,2.33 -2.75,2.333 l -3.083,0.917 -2.5,-1.417 -1.335,-0.086 -1.083,1.75 -0.417,1.584 -1.25,6.333 -2.583,4.166 -0.666,1.833 -0.083,3 1.667,3.583 0.667,4.5 v 2.667 l -0.833,3.583 -1.25,2.417 -0.585,3.25 0.667,2.25 2.083,2.416 1.667,2.584 0.917,2.167 3.5,1.5 6,3.833 2.417,2.167 1.5,1.916 v 2.25 l 0.583,1.417 1.5,0.417 2.417,0.916 0.583,2 2.25,0.75 2,1.917 0.5,1.917 -1.75,3.166 -2.917,0.334 -2.75,1.5 -0.917,1.5 1.833,1.666 0.417,2.25 1.167,1.75 2.083,0.167 H 496 l 0.083,3.833 2.167,4.584 1.917,1.333 1.167,2.25 1.417,0.917 1.167,2.583 v 2.25 h 3.583 l 0.917,1.25 0.75,5.083 -1.25,1.917 z"
         id="path28"
         style="fill:#00ff00;stroke:#000000;stroke-opacity:1"
         inkscape:connector-curvature="0" />
      <path
         d="m 496.25,380.5 v -8.83 L 496.71,371 H 501 l 1.04,-0.88 0.21,-2.29 2.5,-1.83 2,-1.17 h 2.96 l 2.29,1.55 1.58,-0.09 1.67,-1.46 2.13,0.21 1.5,1.21 6.2,-0.04 v -3.92 l 1,-1.46 1.92,0.34 0.29,1.29 2.38,-0.08 1.79,-1.34 1.58,1.38 4.84,0.58 2.37,-2.17 2.37,0.55 0.76,-1.88 v -2.12 L 547,356 h 1.88 v 2.38 l 1.74,2.12 4.5,0.25 2.5,-1.13 2,-1.37 0.63,-3.25 3,-2.88 1.25,-2.74 2.25,-5.13 V 341 l -0.87,-3.75 -0.5,-3.25 1.37,-2.5 1.75,-3.12 1.38,-2.63 1.24,-2 h 1.76 l 1,1.25 0.87,0.75 2.25,-0.37 v -2.5 l -1,-0.88 0.03,-3.94 1.31,-1.4 h 1.63 l 1.53,1.56 2.16,0.03 4.72,-0.19 3.71,-0.15 2.66,-2.19 2.34,-1.03 1.13,-0.25 4.28,-0.36 2.67,2.34 2.41,0.66 1.25,0.09 2.34,1.5 1.66,2.83 0.17,5.83 3,2 2.17,2.17 3.5,2.5 3.33,1.83 2.17,2.67 2.48,-0.25 3.47,0.25 3.82,0.94 3.81,2 3.5,2.31 3.56,2.37 2.57,2.13 2.56,1.87 1.31,0.26 0.37,-1.5 1.82,-0.26 1.37,1.76 4.13,4.12 2.94,1.44 2.37,1.62 1.87,2 1.94,2.13 1.75,-0.07 1.38,-0.68 h 1.62 l 1.13,1 3.18,-0.25 2.94,-0.88 1.86,0.88 -0.48,2.87 -1.32,1.25 -3,-0.06 -1,0.69 -0.5,2.94 -0.74,1.62 -3.38,0.25 -0.88,1.44 -2.5,1.93 -2.5,2.13 -3.56,1 -2.37,2.06 -3.5,2.25 -1.13,1.94 v 1.75 l -1.37,2.19 -0.81,1.81 -2.38,1.06 -2,2.94 -2.06,2.5 -1.5,7.19 -1.63,4.06 -1.06,4.38 -2.25,3.12 -4.33,-0.33 -3.67,-1 -3.83,-1.84 -3.25,1.17 -3.25,2.08 -3.15,1.54 -2.94,1.13 -8.41,0.25 -2.83,1.42 -2.92,2.91 -0.08,1.42 -0.67,2.17 -2.67,3 -3.08,2.41 -2.58,0.17 -0.09,-3.5 -0.17,-3.33 -1.33,-2.34 -3.37,-0.45 -2,-2.26 0.24,-2.24 -1.12,-2.38 -1.62,-1.38 -1.8,-2.5 -2.2,-3.12 -2.26,-2.62 -1.37,-2.26 h -3.63 l -2.24,1 -2.38,1.88 -2.38,-0.75 -2.87,-1.5 h -1.87 l -1.76,-0.75 -1.37,-1 0.25,2.25 -0.12,2 -1.88,0.87 -3.38,3.38 -2.37,1.5 h -3.37 l -2.26,1.5 -2.12,-0.12 -3,-0.76 -1,-1.62 -2.5,-1.88 -3.75,-1 -3.63,-0.24 -2.24,-1.5 -2.13,-2.13 -2.25,-2 -2.62,-2.13 -1.63,-1.74 -3.42,-1.21 -1.83,-2.83 -3.08,-2.17 -3,-2.58 -3.17,-0.59 -0.83,-1.66 -2.25,-2.67 -1.5,-2.92 z m -75.25,117 0.58,-2.08 1.84,-2.34 2.16,-2.16 -0.41,-3.84 -1.34,-2.16 1.75,-3.25 v -2.5 l -1,-3 -0.5,-5.34 -4.08,-3 -2.92,-2.08 -1.58,0.83 -1.83,0.5 -2.5,-2.25 -5.34,-0.41 -3.66,-0.42 -2.75,2.83 -3.67,1.5 -0.42,5 1.84,1.42 -1,1.75 -1.92,2.83 -3.75,3 -3.58,0.92 -1.67,-0.58 -1.58,-0.25 -0.92,0.58 -5.17,0.25 -1,-1.67 -2,-0.41 -1.66,2.91 h -2.59 l -2.66,-0.58 -3.75,1.33 -1.84,3.25 -0.41,3.17 -2.25,2.5 -3.5,3.33 -3,3 -2.67,1.75 -3.75,1.42 -2.58,1.17 h -4.42 l 1.5,-3.04 0.31,-2.57 1.69,-3.43 0.81,-1.76 0.07,-1.93 -2.07,-2.5 -1.93,-3.44 -0.94,-4.37 -8.44,-3.32 -3.19,-2.31 -2.75,-0.75 -1.62,-3.25 0.81,-3 3.75,-0.19 0.75,-4.12 3.94,-6 1.62,-2.63 V 452 l -1.56,-1.25 h -10.13 v -1.94 l 1.82,-2.12 0.75,-0.75 0.25,-2.5 1.56,-1.38 1.94,1.06 1.62,1.88 1.63,1.25 2.87,-0.19 2.13,-1.31 0.39,-3.25 -2.16,-1.25 -2.84,-0.83 -2.58,-1.67 -3.33,-1.25 h -2.42 l -2.83,-1.08 -3.67,-1.34 h -8.5 l -2.58,-1 -2.34,-1.83 -2.16,-3.17 -1.75,-2.91 -1.25,-4.92 7.33,-0.58 2.33,-1.84 3.09,-1 2.91,-3.83 3.84,-3.67 2.83,-0.75 2.75,-1.42 1.25,-2.91 0.58,-4.33 0.34,-4.5 -0.67,-2.92 0.08,-3.67 1.75,-1.67 1.59,-2 2.08,0.84 1.75,2.66 1.08,1.76 0.84,0.33 1.58,-0.09 1.5,-1.66 0.92,-2.17 0.91,-2.83 1.25,-1.92 0.25,-5.25 -0.66,-2.33 -1.75,-3.17 -2,-2.66 0.25,-4.59 -1.09,-3.08 1.17,-2.25 2.33,-1.08 3.17,-1 2.58,-0.84 2.5,-2.83 2.75,-1.08 H 353 l 0.17,-2.25 -1.17,-2.92 -0.33,-1.33 3.25,-0.92 2.91,-0.58 1.84,-3.34 1.58,-2.91 0.87,-1.92 2.46,-1.75 h 3.92 l 0.75,2.08 1.42,1.67 -1.59,2.42 -0.25,2.41 1.25,1.5 1.75,2.75 -0.08,3.59 -1.25,2.16 -0.42,4.34 1.09,3 0.16,2.41 2.5,3.17 0.25,4.42 2.5,2.16 5.34,1 0.42,1.92 1.33,2.5 0.91,2.75 1.26,1.5 1.5,3.17 2.74,0.16 2.5,-1.08 h 2.5 l 1.42,1 h 2 l 1.67,1.33 1.33,1.67 1.75,2.75 -0.41,4.5 0.74,2.67 0.26,2.83 -1.76,1.83 -1.24,3.25 0.75,0.11 2.83,0.23 V 409 l 1.91,1 0.5,2.33 0.17,3.67 0.33,1.83 -1.83,5.17 v 2 l 1.33,2.67 4.5,2 3.5,1.83 1.34,6.33 1,1.5 2.16,0.67 h 3.84 l 1.83,2.83 3.33,0.34 2.5,1.66 2.34,2.5 3.16,1.5 H 441 v 2.5 l -1.33,2.5 1.83,1.84 0.17,2.66 1.83,3.98 0.31,2.07 1.19,0.04 -0.17,3.08 1.25,1.75 -1,5.67 -1.91,2.5 -1.5,3.58 0.41,9.08 -0.75,3.25 -4.16,2 -4.5,1.34 H 429 Z"
         id="path30"
         style="fill:#00ff00;stroke:#000000;stroke-opacity:1"
         inkscape:connector-curvature="0" />
    </g>
  </g>
  <g
     transform="translate(-116.97,-123.75)"
     id="g48"
     style="fill:#00ff00;stroke:#000000;stroke-width:0.5;stroke-opacity:1">
    <path
       d="m 339.5,504.42 -2,-2.23 -1.19,-3.07 -2,-3.06 -2,-1.56 -2.69,-1.88 -1.81,-1.37 -4.25,-0.56 -0.87,-1.07 h -3.88 l -6.12,5.38 -1.88,3 -1.43,2.25 v 5.13 l 1.5,2 2.62,3.24 -0.31,4.82 1.69,1.56 1.87,5 2.25,2.92 -1,3.83 -0.75,6 -5,7.75 -2.87,5 -4.38,5 -2.75,2.5 v 4 l -5.25,4.75 -3,6 -4.5,5.75 -4.25,5.5 -5,5.75 -5,3.5 -2.92,0.91 -1.5,-5 -1.66,-4.16 -2,-2.67 v -2.67 l -6,0.67 -3.5,-1.33 -3.67,-1 -5,-0.34 -2.17,-3.83 2,-2.83 -3.66,-2.17 -4.84,-1.17 -1.16,-3 1.83,-2 0.33,-4.5 5.17,-6.83 3.5,-0.33 0.5,-7.17 -2.83,-2.33 0.33,-2.67 3.33,-0.67 1.34,-1.33 -3,-2.83 -6.17,-2.17 -3.33,-2.5 -3,-2 2.75,0.59 1.16,-3.75 3,-1.75 3.42,0.58 5.17,1.75 3,-1.17 1.58,-0.83 -4.5,-10.42 -4.25,-7.58 -0.42,-4 2.25,-3.25 2.5,-2.67 1.92,-0.91 2.5,2 5.25,3.58 4.33,0.67 4.34,2.5 3.5,1 5.33,-3.67 1.5,-3.17 2,-5.33 3,-2 h 4.79 v -1.42 l -0.58,-2.33 -1.96,-1.71 0.58,-5.37 1.55,-1.59 0.29,-2.37 2.21,-1.46 3,-1.29 3.41,-0.25 1.5,-1.96 0.29,-2.67 -0.41,-0.96 0.95,-0.95 h 3.59 l 1.41,-1.17 2,-1.5 2.92,-0.67 h 1.92 l 1.58,-1.54 0.17,-2 2.21,-0.5 0.62,-1 2.29,-0.29 1.29,-0.62 v -2.13 h 10.13 l 1.56,1.25 v 3.81 l -5.56,8.63 -0.75,4.12 -3.75,0.19 -0.81,3 1.62,3.25 2.75,0.75 3.19,2.31 8.44,3.32 0.94,4.37 1.93,3.44 2.07,2.5 -0.07,1.93 -2.5,5.19 -0.31,2.57 z"
       id="path36"
       style="fill:#00ff00;stroke:#000000;stroke-opacity:1"
       inkscape:connector-curvature="0" />
    <path
       d="m 212.38,411 2.5,1.34 h 2.5 l 2.5,0.91 2.24,0.87 2.26,2.76 h 2.12 l 1.38,1.12 h 5.37 l 3,-1.62 1.63,0.87 2.62,1.96 3.25,1.41 h 4.87 l 2.26,1.13 V 424 l 2.74,1.62 4.13,0.76 3.75,-1.63 4,-4.25 2,-1.81 2.25,0.52 2.75,1.17 2.38,0.74 6,-0.24 2.87,-0.76 2.75,-1.43 2.5,-1.94 h 1.52 v 2.46 h 2.73 l 1.63,-0.52 h 1.37 l 2.42,1.56 1.25,4.92 3.91,6.08 2.34,1.83 2.58,1 h 8.5 l 6.5,2.42 h 2.42 l 3.33,1.25 2.58,1.67 2.84,0.83 2.16,1.25 -0.39,3.25 -2.13,1.31 -2.87,0.19 -1.63,-1.25 -1.62,-1.88 -1.94,-1.06 -1.56,1.38 -0.25,2.5 -2.57,2.87 v 4.07 l -1.29,0.62 -2.29,0.29 -0.62,1 -2.21,0.5 -0.17,2 -1.58,1.54 h -1.92 l -2.92,0.67 -3.41,2.67 h -3.59 l -0.95,0.95 0.41,0.96 -0.29,2.67 -1.5,1.96 -3.41,0.25 -3,1.29 -2.21,1.46 -0.29,2.37 -1.55,1.59 -0.58,5.37 1.96,1.71 0.58,2.33 v 1.42 h -4.79 l -1.67,-3.17 -4.5,-1.5 -3,-2.66 -1.66,-3.5 -1,-5.17 -7.34,-6.5 -4.83,3 -14.67,7 -4.16,0.83 -1.34,-4.16 -2.33,-4 -4.17,-2.67 h -2.75 l -3.58,-0.83 -1.17,-3.83 -1,-6.17 -3.83,-3 -11.33,-3.83 -8.5,-3.34 -3.67,-3.83 -0.33,-2.5 1.83,-6.17 4.83,-10.16 1.5,-4.84 1.67,-3.16 z M 434,384 l -1.92,-2.67 -1.29,-2.21 -1.67,-3.08 -1.79,-1.83 1.09,-4.09 0.96,-2.62 -0.71,-1.71 -1.34,-3.41 -1.58,-3.26 -1.75,-2.5 0.62,-2.74 2.38,-1.76 2,-3.62 2.25,-1.25 0.63,-3.87 2.12,-3.5 3.12,-2.26 1.38,-2.5 v -7.87 l -1.38,-3.37 -1,-4.76 -1.5,-2.74 -0.74,-1.38 2.12,-2 3.67,-1.75 h 1.58 l 3.63,3.5 h 2.24 l 2.76,-1.25 3.5,-1.62 1.5,-2.26 0.87,-2.12 h 2.13 l 1.87,1.38 1.37,1.5 1.38,1.24 v 3 l 0.88,2.63 2,2.25 2.37,1.62 0.75,3.5 2,1.38 v 2.88 l 0.88,5.12 1.37,2.62 3.13,0.38 3.24,1.62 0.88,3.26 1.25,3 4.75,1.62 1,3.75 4.75,1.13 3.37,2.24 1.13,3 2.37,1.88 1.5,3.5 1.38,2.62 0.83,1.71 -0.08,1.5 -0.21,2.29 L 501,371 h -4.29 l -0.46,0.67 v 8.83 l -2.75,1.25 -3.75,1.25 -3.5,3.25 -1.67,2.59 1.09,2.08 0.25,2.92 -1.34,2.75 -2.75,2.33 -3.08,0.92 -2.5,-1.42 -1.33,-0.09 -2.09,-2.41 -3.16,-0.67 -1.75,-1.33 -1.92,-1.84 -2.5,-1.41 -2.08,-0.5 h -4.09 l -4.75,-2.84 -3,-0.41 h -5 l -2.33,0.41 -2.08,-4.25 -1.42,-1.33 h -2.42 l -1.5,0.75 z m 17.75,-125.12 3,2.58 v 1.62 l 1.5,2.46 0.29,2.5 3.71,4.21 0.83,2.17 -0.5,5.25 0.5,3.5 1.75,1.66 h 9 l 0.67,-1.16 -1.08,-2.75 -1.34,-1.84 0.59,-1.66 0.33,-3.17 1.92,-1.67 2.64,-1.66 0.44,-2.84 v -3.41 l 1.17,-4.5 1.5,-4.5 1.16,-6.25 3.17,-2.84 3,-3.5 1.92,-2.75 2,-1.66 v -2.84 l -1.67,-2.5 -0.42,-2.91 0.09,-2.42 2,-1 2,0.92 2.66,-0.25 1.92,-2.5 0.5,-3 0.08,-2.42 H 494 L 490.5,217 h -2.12 v -3.88 l -2.38,-1.5 -3.88,-1.37 -3.87,2.13 -2,4 -0.25,2.12 -3.12,0.62 -2.26,-1.74 -3.5,-1.38 -2.37,-1.25 -2.75,-3.75 -2.12,2.75 -0.63,2.37 -4.13,6.5 0.88,2.88 1.88,2.62 0.12,4.5 1.5,0.63 -0.12,3.63 -1.63,1.5 -1,5.12 -1.63,2.38 v 3.24 l -1.62,3.76 -1.12,3.12 z m -183.08,35.29 2.33,0.75 1.92,-0.75 2.75,0.75 2.58,0.75 4.42,-0.75 h 2.25 l 3.66,-1.34 v -2.83 l -0.91,-4.25 -1.5,-3.5 -1,-3 -3.67,-0.92 -0.92,-2.08 0.5,-2.25 1.42,-1.42 1.5,-1.25 -0.33,-4.58 1.08,-4.5 -2.42,-0.83 0.42,-1.84 1.58,-2.75 h 3.5 l 0.34,-5.16 2.83,-3 3.25,-1.34 h 3.67 l 1.5,1.92 2.33,0.08 1.92,-0.83 2.83,-2.33 3.92,-1.5 1.16,-3.34 2.34,-0.91 2.25,-0.59 1.33,-0.75 v -6.25 l -1.58,-1.66 0.05,-2.98 -6.35,-0.63 -5.5,-1.56 h -5.81 l -1.06,-6.63 -1.08,-2.43 v -6.86 h -3.5 l -1.84,-0.66 -2,1.5 -1.66,4.16 -2.17,-0.83 -3.83,-1 -1.34,-1.33 -2.83,-2.5 -2.83,-1.5 -5,-2.34 -2.5,0.17 -1.17,2.83 -3.33,-0.33 -2.67,-1.33 -3.17,1 -3.66,-1.17 -3.5,-0.83 -3.17,6 h -2.5 v 4.16 l -3.5,1.84 -3.17,6.66 v 12.17 l -1.83,4.33 0.67,3.34 -1.73,3.95 -1.56,2.32 0.87,2.44 -1.63,3.68 h -2.06 l -2.37,1.13 -1.5,2.37 2.75,2.13 1.39,2.81 h 2 l 5,2.33 3.34,2.34 1.33,4.66 3,3.17 2.83,2.5 2.34,1.83 3.33,1.17 3.5,2.83 3.17,2.84 h 3 l 3.33,1.66 z"
       id="path38"
       style="fill:#00ff00;stroke:#000000;stroke-opacity:1"
       inkscape:connector-curvature="0" />
    <path
       d="m 470.5,326 1.56,-0.81 1.32,-1.57 0.5,-2.62 0.43,-3.19 2.75,-4.19 0.88,-1.68 0.62,-1.75 0.69,-4.94 1,-2.5 2.13,-1.25 3.74,0.62 3.19,-1 2.88,-1.31 8.12,0.44 1.5,1.56 2.44,2.38 1.81,-1.07 1.94,-1.68 4.38,-2.63 h 1.31 l 1.12,2.75 1.44,1 2.63,-0.94 3.87,-0.24 3.19,-0.44 3.37,0.56 h 2.25 l 3.19,1.62 2.5,0.76 1.75,1.12 1.12,2.5 v 2.75 l 0.76,2.16 2.18,1.67 2.94,2.23 4.31,0.25 2.75,-0.44 0.32,-3.31 2.24,-0.4 3.76,-0.35 1.5,0.35 3.62,-0.41 4.19,1 3.25,1.44 0.62,1.75 v 1.69 l -1.12,1.31 -1.32,1.69 0.26,1.81 0.74,1.06 -1.24,2 -1.38,2.63 -1.75,3.12 -1.37,2.5 0.5,3.25 0.87,3.75 v 3.25 l -2.25,5.13 -1.25,2.74 -3,2.88 -0.63,3.25 -2,1.37 -2.5,1.13 -4.5,-0.25 -1.74,-2.12 V 356 H 547 l -2.62,1.38 v 2.12 l -0.76,1.88 -2.37,-0.55 -2.37,2.17 -4.84,-0.58 -1.58,-1.38 -1.79,1.34 -2.38,0.08 -0.29,-1.29 -1.92,-0.34 -1,1.46 v 3.92 l -6.2,0.04 -1.5,-1.21 -2.13,-0.21 -1.67,1.46 -1.58,0.09 -2.29,-1.55 h -2.96 l -2,1.17 -2.5,1.83 0.08,-1.5 -2.21,-4.33 -1.5,-3.5 -2.37,-1.88 -1.13,-3 -3.37,-2.24 -4.75,-1.13 -1,-3.75 -4.75,-1.62 -1.25,-3 -0.88,-3.26 -3.24,-1.62 -3.13,-0.38 -1.37,-2.62 -0.88,-5.12 z m -181.92,-32.42 2.67,-0.27 3.06,2.36 1.69,1.14 0.69,2.69 1.87,1.5 3.06,1.06 2.07,2.5 3.56,2.25 1.37,3.57 0.76,2.24 -1,1.5 0.24,2.63 2.76,2.5 3.12,1.25 6.25,1.62 2.25,0.88 2.38,2.12 0.62,2.76 1.75,1.24 4,-1.12 2.75,-0.12 2.38,0.12 3.62,-2 2.75,-0.12 1.13,-1 1.87,1.12 3,1.81 2.69,0.63 3.31,2.37 1.69,2.19 2.44,2.75 1.72,2.2 -3.27,5.97 -2.91,0.58 -3.25,0.92 0.33,1.33 1.17,2.92 -0.17,2.25 h -2.92 l -2.75,1.08 -2.5,2.83 -5.75,1.84 -2.33,1.08 -1.17,2.25 1.09,3.08 -0.25,4.59 2,2.66 1.75,3.17 0.66,2.33 -0.25,5.25 -1.25,1.92 -0.91,2.83 -0.92,2.17 -1.5,1.66 -1.58,0.09 -0.84,-0.33 -2.83,-4.42 -2.08,-0.84 -1.59,2 -1.75,1.67 -0.08,3.67 0.67,2.92 -0.34,4.5 -0.58,4.33 -1.25,2.91 -2.75,1.42 -2.83,0.75 -3.84,3.67 -2.91,3.83 -3.09,1 -2.33,1.84 -7.33,0.58 -2.42,-1.56 h -1.37 l -1.63,0.52 h -2.73 v -2.46 H 289 l -2.5,1.94 -2.75,1.43 -2.87,0.76 -6,0.24 -2.38,-0.74 -2.75,-1.17 -2.25,-0.52 -2,1.81 -4,4.25 -3.75,1.63 -4.13,-0.76 -2.74,-1.62 v -2.25 l -2.26,-1.13 h -4.87 l -3.25,-1.41 -2.62,-1.96 -1.63,-0.87 -3,1.62 h -5.37 l -1.38,-1.12 h -2.12 l -2.26,-2.76 -4.74,-1.78 h -2.5 l -2.5,-1.34 0.46,-2.62 -0.78,-3.76 1.1,-8.53 -2.62,-2.76 -0.33,-2.21 2.37,-2.66 -0.33,-2.08 -2.58,-2.38 -1.59,-4.88 -7.16,-2.37 1.91,-4.92 0.17,-9 -3.33,-1 -2.84,-1.66 0.5,-1.84 2.84,-1.16 2.66,-3 1.17,-5.67 -5.83,-2.17 3,-1.66 2.16,-2.17 2.17,-2.5 2.17,-1.83 2.83,-1.34 2.66,-0.66 1.84,-3.67 6.67,1.5 3.83,-1.5 2.33,-2.33 v -3.67 l 0.84,-5.17 1.83,-1.83 1.67,-2.33 1.5,-4.5 2,-1.34 2,-2.33 v -2.67 l 3.83,-1 h 4 l 2,1.34 1.83,2 h 2.5 l 2,-0.67 3.17,0.83 1.83,0.84 H 262 l 1.5,-1.34 v -12.16 h 3.17 l 2,-2 2.33,0.75 1.92,-0.75 5.33,1.5 4.42,-0.75 h 2.25 z"
       id="path40"
       style="fill:#00ff00;stroke:#000000;stroke-opacity:1"
       inkscape:connector-curvature="0" />
    <path
       d="m 344.38,324.88 1.96,-2.16 0.28,-2.94 0.38,-2.62 -0.81,-1.13 0.81,-1.78 1.56,-1 3.66,-0.63 4.03,0.41 1.53,1.09 4.63,-1.09 6.09,0.03 2.41,-1.53 3.37,-3.44 3.31,-3.4 1.35,-0.81 h 5.12 l 1.47,-1.19 0.97,-2.5 3.72,-0.47 2.06,-1.91 1.16,-4.09 0.65,-3.1 0.69,-1.46 3.16,0.75 1.78,1.75 1.84,1.84 2.56,0.12 1.69,-2 -0.62,-2.06 -0.38,-2.56 0.25,-5.94 -0.25,-5.75 -2.69,-1.43 -3.18,-1.07 -2.19,-1.43 v -2.13 l 1.81,-0.69 4.25,0.63 1.69,1.43 h 2.44 v -5.56 l -1,-1.44 1,-1.74 2,-2.57 2.31,-0.56 1.44,-1.94 1,-2.43 1.06,-1.76 h 3.63 l 2.24,-3.24 2.38,-1.5 2.25,-0.63 v -3 l -1.37,-2 0.12,-3.5 1.62,-2.75 1.26,-3.25 v -5.13 l 2.74,-2.62 3.5,-0.25 0.88,-4 -0.25,-2.25 -2.5,-2.5 -6.5,-2.62 -6.13,-0.26 -1.87,-3 -1,-2.5 0.25,-5.62 -0.62,-4 -4.63,-2.88 -4.13,-0.87 -1.87,-2 -1.87,-3 -2.76,0.63 -0.37,3.24 0.13,3 -0.38,3.7 -2.12,2.56 -4.38,1.24 -3.25,-0.12 -0.25,-3.68 h -3.12 l -1.38,-2.44 -3.75,-3 -4.35,-1.76 -5.52,-2.5 -4.26,-0.62 -3.62,-1.5 -3,-1.12 -1.62,1.06 0.87,3.44 0.87,5.24 0.82,2.57 v 3.69 l -1.82,3.18 -1.31,1.38 -1.81,-1.69 -2.31,-1.69 -1.13,1.56 -0.37,2.38 1.19,2.69 2,1.37 3.06,1.38 0.31,4.62 -1.81,1.75 -1.63,3.25 0.94,3 1.56,2.44 2.81,1.56 v 3.06 l -2.43,-0.18 -2.75,0.12 -2.38,2.19 -2.18,-1.13 -2.76,-2.06 -4.24,-0.44 h -3 l -1.19,3.76 -2.57,0.93 -0.43,-2.31 -1,-1.88 -2.81,-0.06 -3.63,1.06 -2.44,0.44 -2.5,-1.56 -4.12,-2.94 -4.72,-0.12 -0.05,2.98 1.58,1.66 v 6.25 l -1.33,0.75 -2.25,0.59 -2.34,0.91 -1.16,3.34 -3.92,1.5 -2.83,2.33 -1.92,0.83 -2.33,-0.08 -1.5,-1.92 h -3.67 l -3.25,1.34 -2.83,3 -0.34,5.16 h -3.5 l -1.58,2.75 -0.42,1.84 2.42,0.83 -1.08,4.5 0.33,4.58 -1.5,1.25 -1.42,1.42 -0.5,2.25 0.92,2.08 3.67,0.92 1,3 1.5,3.5 0.91,4.25 v 2.83 l 2.67,-0.27 3.06,2.36 1.69,1.14 0.69,2.69 1.87,1.5 3.06,1.06 2.07,2.5 3.56,2.25 1.37,3.57 0.76,2.24 -1,1.5 0.24,2.63 2.76,2.5 3.12,1.25 6.25,1.62 2.25,0.88 2.38,2.12 0.62,2.76 1.75,1.24 4,-1.12 2.75,-0.12 2.38,0.12 3.62,-2 2.75,-0.12 z"
       id="path42"
       style="fill:#00ff00;stroke:#000000;stroke-opacity:1"
       inkscape:connector-curvature="0" />
    <path
       d="m 472.5,283.67 1.17,0.66 0.91,2 V 288 l 1.46,1.62 1.88,0.96 2.2,1.71 0.88,1.83 1.62,1.76 1.88,0.29 3.46,1.75 0.42,2.25 0.93,0.95 -3.19,1 -3.74,-0.62 -2.13,1.25 -1,2.5 -0.69,4.94 -0.62,1.75 -0.88,1.68 -2.75,4.19 -0.43,3.19 -0.5,2.62 -1.32,1.57 -1.56,0.81 -2,-1.38 -0.75,-3.5 -2.37,-1.62 -2,-2.25 -0.88,-2.63 v -3 l -1.38,-1.24 -1.37,-1.5 -1.87,-1.38 h -2.13 l -0.87,2.12 -1.5,2.26 -6.26,2.87 h -2.24 l -3.63,-3.5 h -1.58 L 436,313 l -2.12,2 2.24,4.12 1,4.76 1.38,3.37 v 7.87 l -1.38,2.5 -3.12,2.26 -2.12,3.5 -0.63,3.87 -2.25,1.25 -2,3.62 -2.38,1.76 -0.62,2.74 1.75,2.5 1.58,3.26 2.05,5.12 -0.96,2.62 -1.09,4.09 1.79,1.83 1.67,3.08 1.29,2.21 1.92,2.67 v 1.5 l 1,1.5 v 2.08 l -1,1.84 -2.08,0.91 -1.84,1.09 -0.66,1.75 -3,2.83 -1.92,1.42 -2.42,1.75 v 1.91 l 0.75,0.34 -0.16,2.08 -1.92,1.08 -6.5,-0.91 -2.58,-1.42 -7.25,2.42 -3.58,-0.34 1.24,-3.25 1.76,-1.83 -0.26,-2.83 -0.74,-2.67 0.41,-4.5 -1.75,-2.75 -1.33,-1.67 -1.67,-1.33 h -2 l -1.42,-1 h -2.5 l -2.5,1.08 -2.74,-0.16 -1.5,-3.17 -1.26,-1.5 -0.91,-2.75 -1.33,-2.5 -0.42,-1.92 -5.34,-1 -2.5,-2.16 -0.25,-4.42 -2.5,-3.17 -0.16,-2.41 -1.09,-3 0.42,-4.34 1.25,-2.16 0.08,-3.59 -1.75,-2.75 -1.25,-1.5 0.25,-2.41 1.59,-2.42 -1.42,-1.67 -0.75,-2.08 h -3.92 l -2.46,1.75 -1.02,2.2 -1.72,-2.2 -2.44,-2.75 -1.69,-2.19 -3.31,-2.37 -2.69,-0.63 -4.87,-2.93 1.96,-2.16 0.66,-5.56 -0.81,-1.13 0.81,-1.78 1.56,-1 3.66,-0.63 4.03,0.41 1.53,1.09 4.63,-1.09 6.09,0.03 2.41,-1.53 3.37,-3.44 3.31,-3.4 1.35,-0.81 h 5.12 l 1.47,-1.19 0.97,-2.5 3.72,-0.47 2.06,-1.91 1.16,-4.09 0.65,-3.1 0.69,-1.46 3.16,0.75 1.78,1.75 1.78,1.78 2.62,0.18 1.69,-2 -0.62,-2.06 -0.38,-2.56 0.25,-5.94 -0.25,-5.75 -2.69,-1.43 -3.18,-1.07 -2.19,-1.43 v -2.13 l 1.81,-0.69 4.25,0.63 1.69,1.43 h 2.44 v -5.56 l -1,-1.44 1,-1.74 2,-2.57 2.31,-0.56 1.44,-1.94 1,-2.43 1.06,-1.76 h 3.63 l 4.74,2.88 2.63,1.12 9.87,0.76 2.88,-1.38 h 2 l 1.5,0.75 3.75,2.13 -2,2.24 V 266 l 2.25,-0.88 h 3.38 v -4.74 l 2.37,-1.5 3,2.58 v 1.62 l 1.5,2.46 0.29,2.5 3.71,4.21 0.83,2.17 -0.5,5.25 0.5,3.5 1.75,1.66 h 9 z"
       id="path44"
       style="fill:#00ff00;stroke:#000000;stroke-opacity:1"
       inkscape:connector-curvature="0" />
    <path
       d="m 497.08,219.75 h 10.3 l 1.37,1.17 5.08,0.08 3.42,0.92 2.33,1 1.84,4.58 1.5,3.25 -0.5,3 -1.25,2.42 -1.09,1.79 v 2.87 l 3.75,-0.25 1.5,-1.41 3.92,0.75 3.5,3.42 -0.33,3.5 -2.42,5.58 -1,3.33 -1.67,2.83 2.92,0.59 3,1.41 4.75,1.26 2.17,1.91 5.5,0.42 0.33,3.66 -0.75,4.17 -0.17,2.25 2.17,0.58 2.5,1.42 6.92,0.5 4.08,3 2.42,1.33 1.66,-0.91 0.92,-0.59 1.4,2.09 3.1,0.5 2.92,2.75 5.66,0.33 4.59,3.92 6,0.33 2.91,2.67 h 3.17 l 2.08,-1.92 1.67,-2.58 3.42,-1.34 1.33,0.5 4.83,0.17 4.84,1.5 3.16,0.17 4.84,2 1,3 -1.84,0.66 -1.83,1 -2.67,2.34 -2.66,3.33 -4.67,4.5 h -2.83 l -1.17,-1 -1.67,-0.17 -0.66,1.84 1,2.16 2,2.67 2.33,2.17 -0.17,4 -1.25,-0.09 -2.41,-0.66 -2.67,-2.34 -4.28,0.36 -1.13,0.25 -2.34,1.03 -2.66,2.19 -8.43,0.34 -2.16,-0.03 -1.53,-1.56 h -1.63 l -1.31,1.4 -0.03,3.94 1,0.88 v 2.5 l -2.25,0.37 -0.87,-0.75 -1,-1.25 h -1.76 l -0.74,-1.06 -0.26,-1.81 2.44,-3 v -1.69 l -0.62,-1.75 -3.25,-1.44 -4.19,-1 -3.62,0.41 -1.5,-0.35 -3.76,0.35 -2.24,0.4 -0.32,3.31 -2.75,0.44 -4.31,-0.25 -5.12,-3.9 -0.76,-2.16 V 307.5 L 539,305 l -1.75,-1.12 -2.5,-0.76 -3.19,-1.62 h -2.25 l -3.37,-0.56 -3.19,0.44 -3.87,0.24 -2.63,0.94 -1.44,-1 -1.12,-2.75 h -1.31 l -4.38,2.63 -1.94,1.68 -1.81,1.07 -3.94,-3.94 -8.12,-0.44 -2.88,1.31 -0.93,-0.95 -0.42,-2.25 -3.46,-1.75 -1.88,-0.29 -1.62,-1.76 -0.88,-1.83 -2.2,-1.71 -1.88,-0.96 -1.46,-1.62 v -1.67 l -0.91,-2 -1.17,-0.66 -1.08,-2.75 -1.34,-1.84 0.59,-1.66 0.33,-3.17 1.92,-1.67 2.64,-1.66 0.44,-2.84 v -3.41 l 1.17,-4.5 1.5,-4.5 1.16,-6.25 3.17,-2.84 3,-3.5 1.92,-2.75 2,-1.66 v -2.84 l -1.67,-2.5 -0.42,-2.91 0.09,-2.42 2,-1 2,0.92 2.66,-0.25 1.92,-2.5 0.5,-3 z"
       id="path46"
       style="fill:#00ff00;stroke:#000000;stroke-opacity:1"
       inkscape:connector-curvature="0" />
  </g>
  <g
     id="g136"
     style="font-family:Helvetica"
     transform="translate(0,2.9101562e-6)" />
</svg>
