<?xml version="1.0" encoding="UTF-8" standalone="no"?>
<!-- Created with Inkscape (http://www.inkscape.org/) -->

<svg
   xmlns:dc="http://purl.org/dc/elements/1.1/"
   xmlns:cc="http://creativecommons.org/ns#"
   xmlns:rdf="http://www.w3.org/1999/02/22-rdf-syntax-ns#"
   xmlns:svg="http://www.w3.org/2000/svg"
   xmlns="http://www.w3.org/2000/svg"
   xmlns:sodipodi="http://sodipodi.sourceforge.net/DTD/sodipodi-0.dtd"
   xmlns:inkscape="http://www.inkscape.org/namespaces/inkscape"
   width="69.497002mm"
   height="69.497002mm"
   viewBox="0 0 69.497002 69.497002"
   version="1.1"
   id="svg8"
   inkscape:version="0.92.3 (2405546, 2018-03-11)"
   sodipodi:docname="2do-grado.svg">
  <defs
     id="defs2" />
  <sodipodi:namedview
     id="base"
     pagecolor="#ffffff"
     bordercolor="#666666"
     borderopacity="1.0"
     inkscape:pageopacity="0.0"
     inkscape:pageshadow="2"
     inkscape:zoom="1.4"
     inkscape:cx="-5.9154843"
     inkscape:cy="111.33505"
     inkscape:document-units="mm"
     inkscape:current-layer="layer1"
     showgrid="false"
     fit-margin-top="0"
     fit-margin-left="0"
     fit-margin-right="0"
     fit-margin-bottom="0"
     inkscape:window-width="1366"
     inkscape:window-height="745"
     inkscape:window-x="-8"
     inkscape:window-y="-8"
     inkscape:window-maximized="1" />
  <metadata
     id="metadata5">
    <rdf:RDF>
      <cc:Work
         rdf:about="">
        <dc:format>image/svg+xml</dc:format>
        <dc:type
           rdf:resource="http://purl.org/dc/dcmitype/StillImage" />
        <dc:title />
      </cc:Work>
    </rdf:RDF>
  </metadata>
  <g
     inkscape:label="Capa 1"
     inkscape:groupmode="layer"
     id="layer1"
     transform="translate(5.6234655,-49.849464)">
    <flowRoot
       xml:space="preserve"
       id="flowRoot819"
       style="font-style:normal;font-weight:normal;font-size:40px;line-height:125%;font-family:sans-serif;letter-spacing:0px;word-spacing:0px;fill:#000000;fill-opacity:1;stroke:none;stroke-width:1px;stroke-linecap:butt;stroke-linejoin:miter;stroke-opacity:1"
       transform="scale(0.26458333)"><flowRegion
         id="flowRegion821"><rect
           id="rect823"
           width="48.57143"
           height="94.285713"
           x="328.57144"
           y="388.23398" /></flowRegion><flowPara
         id="flowPara825" /></flowRoot>    <g
       id="g951"
       transform="translate(148.35826,-66.162817)"
       style="fill:#ffffff">
      <g
         aria-label="2"
         style="font-style:normal;font-variant:normal;font-weight:bold;font-stretch:normal;font-size:50.79999924px;line-height:125%;font-family:sans-serif;-inkscape-font-specification:'sans-serif, Bold';font-variant-ligatures:normal;font-variant-caps:normal;font-variant-numeric:normal;font-feature-settings:normal;text-align:start;letter-spacing:0px;word-spacing:0px;writing-mode:lr-tb;text-anchor:start;fill:#ffffff;fill-opacity:1;stroke:none;stroke-width:0.26458332px;stroke-linecap:butt;stroke-linejoin:miter;stroke-opacity:1"
         id="text817-9">
        <path
           d="m -124.49929,169.58754 h -28.99668 v -6.10195 q 3.32383,-2.40606 6.64765,-5.10977 3.34864,-2.70371 5.35782,-4.66328 3.00136,-2.90215 4.2664,-5.06016 1.26504,-2.158 1.26504,-4.2664 0,-2.53008 -1.63711,-3.89434 -1.6123,-1.38906 -4.66328,-1.38906 -2.28203,0 -4.81211,0.94258 -2.50527,0.94258 -4.66328,2.40605 h -0.79375 v -8.21035 q 1.76113,-0.76894 5.18418,-1.53789 3.44785,-0.76895 6.8957,-0.76895 6.94532,0 10.59161,2.92696 3.64628,2.90215 3.64628,8.23515 0,3.49746 -1.76113,6.64766 -1.73633,3.1502 -5.33301,6.49883 -2.25722,2.08359 -4.53925,3.84472 -2.28204,1.73633 -3.24942,2.43086 h 16.59434 z"
           style="font-style:normal;font-variant:normal;font-weight:bold;font-stretch:normal;font-size:50.79999924px;font-family:sans-serif;-inkscape-font-specification:'sans-serif, Bold';font-variant-ligatures:normal;font-variant-caps:normal;font-variant-numeric:normal;font-feature-settings:normal;text-align:start;writing-mode:lr-tb;text-anchor:start;fill:#ffffff;stroke-width:0.26458332px"
           id="path823" />
      </g>
      <g
         transform="translate(-61.450765,45.344646)"
         id="g930"
         style="fill:#ffffff">
        <g
           aria-label="RO"
           style="font-style:normal;font-weight:normal;font-size:10.58333302px;line-height:125%;font-family:sans-serif;letter-spacing:0px;word-spacing:0px;fill:#ffffff;fill-opacity:1;stroke:none;stroke-width:0.26458332px;stroke-linecap:butt;stroke-linejoin:miter;stroke-opacity:1"
           id="text829-3">
          <path
             d="m -51.199501,92.62932 q 0,-0.694531 -0.285254,-1.190625 -0.285254,-0.496094 -0.979785,-0.781348 -0.483692,-0.198437 -1.128614,-0.235644 -0.644921,-0.04961 -1.500683,-0.04961 h -1.723926 v 4.97334 h 1.463477 q 1.141015,0 1.909961,-0.111621 0.768945,-0.111621 1.289843,-0.508496 0.496094,-0.384473 0.719336,-0.843359 0.235645,-0.471289 0.235645,-1.252637 z m 7.429004,12.81162 h -5.8167 l -5.035351,-6.771679 h -2.195215 v 6.771679 h -4.737695 V 86.973851 h 7.987109 q 1.63711,0 2.815332,0.186035 1.178223,0.186036 2.207617,0.806153 1.041797,0.620117 1.649512,1.612304 0.620117,0.979786 0.620117,2.468067 0,2.046386 -0.95498,3.33623 -0.942578,1.289844 -2.703711,2.145606 z"
             style="font-style:normal;font-variant:normal;font-weight:bold;font-stretch:normal;font-size:25.39999962px;font-family:sans-serif;-inkscape-font-specification:'sans-serif, Bold';font-variant-ligatures:normal;font-variant-caps:normal;font-variant-numeric:normal;font-feature-settings:normal;text-align:start;writing-mode:lr-tb;text-anchor:start;fill:#ffffff;stroke-width:0.26458332px"
             id="path826" />
          <path
             d="m -23.703506,96.213597 q 0,4.415233 -2.530078,7.019723 -2.530079,2.59209 -6.994922,2.59209 -4.452442,0 -6.98252,-2.59209 -2.530078,-2.60449 -2.530078,-7.019723 0,-4.452441 2.530078,-7.032129 2.530078,-2.592089 6.98252,-2.592089 4.440039,0 6.982519,2.592089 2.542481,2.579688 2.542481,7.032129 z m -6.312793,4.675683 q 0.694531,-0.84336 1.029394,-1.984374 0.334864,-1.153418 0.334864,-2.703711 0,-1.661914 -0.384473,-2.827734 -0.384473,-1.165821 -1.00459,-1.885157 -0.632519,-0.74414 -1.463476,-1.079004 -0.818555,-0.334863 -1.711524,-0.334863 -0.905371,0 -1.711523,0.322461 -0.79375,0.322461 -1.463477,1.066602 -0.620117,0.694531 -1.016992,1.922363 -0.384473,1.21543 -0.384473,2.827734 0,1.649512 0.372071,2.815332 0.384472,1.153421 1.004589,1.885161 0.620118,0.73173 1.451075,1.079 0.830957,0.34726 1.74873,0.34726 0.917774,0 1.748731,-0.34726 0.830957,-0.35967 1.451074,-1.10381 z"
             style="font-style:normal;font-variant:normal;font-weight:bold;font-stretch:normal;font-size:25.39999962px;font-family:sans-serif;-inkscape-font-specification:'sans-serif, Bold';font-variant-ligatures:normal;font-variant-caps:normal;font-variant-numeric:normal;font-feature-settings:normal;text-align:start;writing-mode:lr-tb;text-anchor:start;fill:#ffffff;stroke-width:0.26458332px"
             id="path828" />
        </g>
        <path
           style="opacity:1;vector-effect:none;fill:#ffffff;fill-opacity:1;stroke:none;stroke-width:1.02541244;stroke-linecap:butt;stroke-linejoin:miter;stroke-miterlimit:4;stroke-dasharray:none;stroke-dashoffset:0;stroke-opacity:1;paint-order:markers stroke fill"
           d="m -61.739258,107.77318 h 38.219544 v 6.41447 h -38.219544 z"
           id="rect891-0" />
      </g>
    </g>
  </g>
</svg>
