<?xml version="1.0" encoding="UTF-8" standalone="no"?>
<!-- Generator: Adobe Illustrator 18.0.0, SVG Export Plug-In . SVG Version: 6.00 Build 0)  -->

<svg
   xmlns:dc="http://purl.org/dc/elements/1.1/"
   xmlns:cc="http://creativecommons.org/ns#"
   xmlns:rdf="http://www.w3.org/1999/02/22-rdf-syntax-ns#"
   xmlns:svg="http://www.w3.org/2000/svg"
   xmlns="http://www.w3.org/2000/svg"
   xmlns:sodipodi="http://sodipodi.sourceforge.net/DTD/sodipodi-0.dtd"
   xmlns:inkscape="http://www.inkscape.org/namespaces/inkscape"
   version="1.1"
   id="Capa_1"
   x="0px"
   y="0px"
   viewBox="0 0 550.83363 550.83362"
   xml:space="preserve"
   sodipodi:docname="Clicked.svg"
   width="550.83362"
   height="550.83362"
   inkscape:version="0.92.3 (2405546, 2018-03-11)"
   inkscape:export-filename="C:\Users\jesse\source\repos\calculapp\Calculapp\Resources\Icons\Clicked.png"
   inkscape:export-xdpi="8.3655024"
   inkscape:export-ydpi="8.3655024"><metadata
   id="metadata39"><rdf:RDF><cc:Work
       rdf:about=""><dc:format>image/svg+xml</dc:format><dc:type
         rdf:resource="http://purl.org/dc/dcmitype/StillImage" /><dc:title /></cc:Work></rdf:RDF></metadata><defs
   id="defs37" /><sodipodi:namedview
   pagecolor="#ffffff"
   bordercolor="#666666"
   borderopacity="1"
   objecttolerance="10"
   gridtolerance="10"
   guidetolerance="10"
   inkscape:pageopacity="0"
   inkscape:pageshadow="2"
   inkscape:window-width="1366"
   inkscape:window-height="745"
   id="namedview35"
   showgrid="false"
   inkscape:snap-nodes="false"
   fit-margin-top="0"
   fit-margin-left="0"
   fit-margin-right="0"
   fit-margin-bottom="0"
   inkscape:zoom="0.7946128"
   inkscape:cx="33.947222"
   inkscape:cy="290.9518"
   inkscape:window-x="-8"
   inkscape:window-y="-8"
   inkscape:window-maximized="1"
   inkscape:current-layer="Capa_1" />

<path
   style="opacity:0.5;vector-effect:none;fill:#00ffff;fill-opacity:1;stroke:none;stroke-width:45.008358;stroke-linecap:butt;stroke-linejoin:miter;stroke-miterlimit:4;stroke-dasharray:none;stroke-dashoffset:0;stroke-opacity:1;paint-order:markers stroke fill"
   d="M 201.11328,3.671875e-6 A 201.11195,201.11195 0 0 0 0,201.11328 201.11195,201.11195 0 0 0 201.11328,402.22461 201.11195,201.11195 0 0 0 402.22461,201.11328 201.11195,201.11195 0 0 0 201.11328,3.671875e-6 Z m 0,96.996092328125 A 104.11548,104.11548 0 0 1 305.22851,201.11328 104.11548,104.11548 0 0 1 201.11328,305.22851 104.11548,104.11548 0 0 1 96.998046,201.11328 104.11548,104.11548 0 0 1 201.11328,96.996096 Z"
   id="circle836"
   inkscape:connector-curvature="0" /><g
   id="g4"
   transform="translate(438.93828,251.40254)">
</g>
<g
   id="g6"
   transform="translate(438.93828,251.40254)">
</g>
<g
   id="g8"
   transform="translate(438.93828,251.40254)">
</g>
<g
   id="g10"
   transform="translate(438.93828,251.40254)">
</g>
<g
   id="g12"
   transform="translate(438.93828,251.40254)">
</g>
<g
   id="g14"
   transform="translate(438.93828,251.40254)">
</g>
<g
   id="g16"
   transform="translate(438.93828,251.40254)">
</g>
<g
   id="g18"
   transform="translate(438.93828,251.40254)">
</g>
<g
   id="g20"
   transform="translate(438.93828,251.40254)">
</g>
<g
   id="g22"
   transform="translate(438.93828,251.40254)">
</g>
<g
   id="g24"
   transform="translate(438.93828,251.40254)">
</g>
<g
   id="g26"
   transform="translate(438.93828,251.40254)">
</g>
<g
   id="g28"
   transform="translate(438.93828,251.40254)">
</g>
<g
   id="g30"
   transform="translate(438.93828,251.40254)">
</g>
<g
   id="g32"
   transform="translate(438.93828,251.40254)">
</g>
<path
   style="opacity:1;vector-effect:none;fill:#ffffff;fill-opacity:1;stroke:none;stroke-width:22.33927727;stroke-linecap:butt;stroke-linejoin:miter;stroke-miterlimit:4;stroke-dasharray:none;stroke-dashoffset:0;stroke-opacity:1;paint-order:markers stroke fill"
   d="m 256.82999,539.44309 c -24.78329,-0.35445 -50.58948,-0.70584 -57.34709,-0.78088 l -12.28654,-0.13643 -5.56199,-11.7445 c -15.97945,-33.74171 -39.28469,-78.96859 -45.57448,-88.44329 -3.85057,-5.80035 -14.92413,-20.89677 -24.60792,-33.54761 -26.769917,-34.97202 -32.28131,-42.70286 -34.376902,-48.22049 -2.634929,-6.9377 -2.445739,-8.83377 1.381585,-13.84627 3.813592,-4.99451 11.980563,-15.76572 17.902105,-15.76572 8.255612,0 18.390862,3.76408 50.846032,41.28316 15.07016,17.42153 19.18974,25.76856 26.83102,22.14254 6.44283,-3.05734 11.04702,-31.22566 11.7241,-89.92144 1.31871,-114.31847 0.18062,-106.38479 6.9989,-111.58535 5.14952,-3.92773 12.13692,-3.82307 17.24387,0.25829 7.51454,6.00547 13.40782,1.20081 12.6973,77.10999 5.95941,21.91221 3.32617,15.43641 19.11067,4.05292 1.23085,-1.72568 4.00185,-4.0375 6.15778,-5.13737 6.97234,-3.55702 13.94521,-1.06887 18.69207,6.66995 11.88482,16.63767 14.66695,22.14249 33.21531,17.47116 5.30185,-2.56659 10.0439,-2.50047 14.04498,0.19586 17.99642,27.12503 10.59899,31.62833 29.41323,40.3269 2.20624,-3.61866 10.63117,0.7084 15.4707,0.6768 3.88096,-0.0253 9.4851,2.98857 12.11471,6.5153 1.86749,2.50459 1.9092,3.80885 1.59964,50.02901 -0.42859,63.99564 -0.0701,62.01746 -26.49001,146.20706 l -2.10605,6.71114 -21.01624,0.0618 c -11.55894,0.034 -41.29349,-0.22818 -66.07678,-0.58263 z"
   id="path831"
   inkscape:connector-curvature="0"
   sodipodi:nodetypes="cscssssssscssscccccccccsscscc" /><path
   inkscape:connector-curvature="0"
   d="m 355.12668,312.92009 c -5.17186,-1.24091 -14.78326,-0.37705 -19.41253,1.54585 -1.19992,-19.49839 -6.12363,-38.71716 -32.77656,-41.96086 -5.901,-0.71815 -12.21427,0.56564 -17.26626,2.94829 -6.15633,-12.3315 -13.35271,-23.6539 -32.3689,-25.20633 -4.28703,-0.34999 -12.74407,1.35039 -16.62337,2.62471 l 0.63705,-41.22997 c 0.32681,-21.09468 -14.09487,-32.70056 -35.0477,-33.02427 -20.95031,-0.32363 -33.50825,17.9706 -33.61211,32.63096 L 167.51,373.04549 129.59872,332.48311 c -10.34708,-7.5456 -16.26633,-14.65588 -26.82416,-14.93546 l -0.19382,-0.003 c -10.154621,-0.15689 -19.660851,4.32652 -26.896751,11.34722 -11.43095,12.79901 -18.52699,28.43875 11.58329,63.00602 16.886241,23.28674 26.665681,34.19062 40.434351,55.89969 10.06147,15.86495 15.62801,32.2028 22.55412,44.57787 6.00612,10.73895 25.3772,47.79038 25.53903,48.14133 2.05638,4.51857 6.53365,7.43303 11.49418,7.52421 l 151.80796,2.79044 c 5.58249,0.10265 10.5802,-3.43889 12.37368,-8.72285 3.17578,-9.3769 31.053,-92.52281 31.55156,-124.79193 l 1.00986,-65.36384 c 0.32389,-21.09981 -9.28143,-34.32435 -28.90535,-39.03272 z m -20.64152,31.34351 c 0.10661,-6.92686 8.21895,-12.12291 14.99378,-12.01824 6.77864,0.10476 13.76788,6.47807 13.66085,13.40493 l -1.24798,80.7783 c -0.33135,21.44435 -16.98546,72.52673 -26.53347,101.75184 L 189.49951,526.3719 c -5.15685,-11.16931 -16.9814,-36.34414 -21.73477,-44.84252 -7.2713,-12.99622 -12.65586,-27.96659 -22.91278,-44.13992 -13.56464,-21.38281 -36.52187,-47.98894 -55.077181,-74.55451 -3.6306,-6.62092 -6.5121,-13.73244 -1.53899,-18.55421 4.69542,-8.89936 16.542851,-7.17238 25.079341,0.60294 l 53.28502,56.18289 c 3.4594,4.08663 8.91952,8.26689 13.9575,6.46308 5.04307,-1.80498 7.36965,-5.46257 7.38143,-10.81666 l 0.4064,-184.71531 c 0.0153,-6.9264 7.73787,-14.22118 14.51651,-14.11645 6.77991,0.10478 15.02857,7.20086 14.97265,14.12706 l -0.97422,120.66068 c -0.0573,7.09722 2.44233,12.89119 9.53766,13.00082 7.09531,0.10959 10.48547,-4.25821 10.58143,-11.355 l 0.69046,-51.0799 c 0.0935,-6.92197 7.92369,-13.37723 14.69979,-13.27254 6.77864,0.10477 14.02814,8.36629 13.94641,15.28839 l -0.76422,64.71302 c -0.0839,7.10074 2.4479,12.44755 9.54322,12.55717 7.09662,0.1093 11.00093,-4.91429 11.03795,-12.0167 l 0.23795,-45.65125 c 0.0361,-6.92631 7.91406,-12.75441 14.69015,-12.64972 6.7799,0.10479 13.32602,6.15667 13.35497,13.08302 l 0.26798,64.11926 c 0.0297,7.0961 3.07261,10.69958 10.1692,10.80923 7.09786,0.10932 9.13646,-3.7286 9.24608,-10.82391 l 0.38863,-25.12719 z"
   id="path2-1"
   style="opacity:1;stroke-width:1.26694822"
   sodipodi:nodetypes="scscsccsscccscccccsscscscssscccccccccssssssssssssssssssscc"
   inkscape:transform-center-x="-42.715763"
   inkscape:transform-center-y="-169.67259" /></svg>