<?xml version="1.0" encoding="UTF-8" standalone="no"?>
<svg
   xmlns:dc="http://purl.org/dc/elements/1.1/"
   xmlns:cc="http://creativecommons.org/ns#"
   xmlns:rdf="http://www.w3.org/1999/02/22-rdf-syntax-ns#"
   xmlns:svg="http://www.w3.org/2000/svg"
   xmlns="http://www.w3.org/2000/svg"
   xmlns:sodipodi="http://sodipodi.sourceforge.net/DTD/sodipodi-0.dtd"
   xmlns:inkscape="http://www.inkscape.org/namespaces/inkscape"
   height="266"
   width="268"
   viewBox="0 0 268 266"
   version="1.1"
   id="svg7"
   sodipodi:docname="Close_02.svg"
   inkscape:version="0.92.3 (2405546, 2018-03-11)"
   inkscape:export-filename="C:\Users\jesse\source\repos\calculapp\Calculapp\Resources\Icons\Close_02.png"
   inkscape:export-xdpi="8.3655005"
   inkscape:export-ydpi="8.3655005">
  <metadata
     id="metadata13">
    <rdf:RDF>
      <cc:Work
         rdf:about="">
        <dc:format>image/svg+xml</dc:format>
        <dc:type
           rdf:resource="http://purl.org/dc/dcmitype/StillImage" />
        <dc:title />
      </cc:Work>
    </rdf:RDF>
  </metadata>
  <defs
     id="defs11">
    <clipPath
       clipPathUnits="userSpaceOnUse"
       id="clipPath834">
      <path
         id="path836"
         d="m -368.25424,-48.979704 h 60.86302 l 48.13698,51.3798704 48.10996,-51.3798704 h 60.89004 l -78.56163,83.902728 78.17993,83.480396 h -60.83558 l -47.77606,-50.998386 -47.769,50.998386 h -60.88339 l 78.19406,-83.480396 z"
         inkscape:connector-curvature="0"
         style="fill:#000000;stroke-width:6.8125" />
    </clipPath>
  </defs>
  <sodipodi:namedview
     pagecolor="#ffffff"
     bordercolor="#666666"
     borderopacity="1"
     objecttolerance="10"
     gridtolerance="10"
     guidetolerance="10"
     inkscape:pageopacity="0"
     inkscape:pageshadow="2"
     inkscape:window-width="1366"
     inkscape:window-height="745"
     id="namedview9"
     showgrid="false"
     fit-margin-top="0"
     fit-margin-left="0"
     fit-margin-right="0"
     fit-margin-bottom="0"
     inkscape:zoom="1.3037281"
     inkscape:cx="-17.244448"
     inkscape:cy="137.42276"
     inkscape:window-x="-8"
     inkscape:window-y="-8"
     inkscape:window-maximized="1"
     inkscape:current-layer="svg7" />
  <rect
     height="256"
     width="256"
     id="rect838"
     x="12"
     y="10"
     style="opacity:0.506;fill:#000000" />
  <rect
     style="fill:#ff0000"
     y="0"
     x="0"
     id="rect2"
     width="256"
     height="256" />
  <path
     style="fill:#ffffff;stroke-width:6.8125"
     inkscape:connector-curvature="0"
     d="M 19,44.308432 H 79.863018 L 128,95.688302 176.10996,44.308432 H 237 l -78.56163,83.902728 78.17993,83.4804 H 175.78272 L 128.00666,160.69317 80.237656,211.69156 H 19.354263 l 78.19406,-83.4804 z"
     id="path1" />
  <g
     id="g832"
     clip-path="url(#clipPath834)"
     transform="translate(387.25424,93.288136)">
    <path
       id="path828"
       d="m -368.25424,-48.979704 h 60.86302 l 48.13698,51.3798704 48.10996,-51.3798704 h 60.89004 l -78.56163,83.902728 78.17993,83.480396 h -60.83558 l -47.77606,-50.998386 -47.769,50.998386 h -60.88339 l 78.19406,-83.480396 z"
       inkscape:connector-curvature="0"
       style="opacity:0.5;fill:#000000;stroke-width:6.8125" />
    <path
       id="path826"
       d="m -380.25424,-42.979704 h 60.86302 l 48.13698,51.37987 48.10996,-51.37987 h 60.89004 l -78.56163,83.902728 78.17993,83.480396 h -60.83558 l -47.77606,-50.998386 -47.769,50.998386 h -60.88339 l 78.19406,-83.480396 z"
       inkscape:connector-curvature="0"
       style="fill:#ffffff;stroke-width:6.8125" />
  </g>
</svg>
