<?xml version="1.0" encoding="utf-8"?>
<svg xmlns="http://www.w3.org/2000/svg" height="256" width="256" viewBox="0 0 256 256">
  <g>
    <path id="path1" transform="rotate(0,128,128) translate(59,75.0209340453148) scale(4.3125,4.3125)  " fill="#FF0000" d="M0,0L8.934021,0 16,7.5419992 23.062012,0 32,0 20.468018,12.315997 31.94397,24.570001 23.013977,24.570001 16.000977,17.083998 8.9890137,24.570001 0.052001953,24.570001 11.530029,12.315997z" />
  </g>
</svg>

