<?xml version="1.0" encoding="UTF-8" standalone="no"?>
<!-- Generator: Adobe Illustrator 18.0.0, SVG Export Plug-In . SVG Version: 6.00 Build 0)  -->

<svg
   xmlns:dc="http://purl.org/dc/elements/1.1/"
   xmlns:cc="http://creativecommons.org/ns#"
   xmlns:rdf="http://www.w3.org/1999/02/22-rdf-syntax-ns#"
   xmlns:svg="http://www.w3.org/2000/svg"
   xmlns="http://www.w3.org/2000/svg"
   xmlns:sodipodi="http://sodipodi.sourceforge.net/DTD/sodipodi-0.dtd"
   xmlns:inkscape="http://www.inkscape.org/namespaces/inkscape"
   version="1.1"
   id="Capa_1"
   x="0px"
   y="0px"
   viewBox="0 0 550.83361 550.83363"
   xml:space="preserve"
   sodipodi:docname="Drop.svg"
   width="550.83362"
   height="550.83362"
   inkscape:version="0.92.3 (2405546, 2018-03-11)"
   inkscape:export-filename="C:\Users\jesse\source\repos\calculapp\Calculapp\Resources\Icons\Drop.png"
   inkscape:export-xdpi="8.3655024"
   inkscape:export-ydpi="8.3655024"><metadata
   id="metadata39"><rdf:RDF><cc:Work
       rdf:about=""><dc:format>image/svg+xml</dc:format><dc:type
         rdf:resource="http://purl.org/dc/dcmitype/StillImage" /><dc:title /></cc:Work></rdf:RDF></metadata><defs
   id="defs37" /><sodipodi:namedview
   pagecolor="#ffffff"
   bordercolor="#666666"
   borderopacity="1"
   objecttolerance="10"
   gridtolerance="10"
   guidetolerance="10"
   inkscape:pageopacity="0"
   inkscape:pageshadow="2"
   inkscape:window-width="1366"
   inkscape:window-height="745"
   id="namedview35"
   showgrid="false"
   inkscape:snap-nodes="false"
   fit-margin-top="0"
   fit-margin-left="0"
   fit-margin-right="0"
   fit-margin-bottom="0"
   inkscape:zoom="0.7946128"
   inkscape:cx="308.3297"
   inkscape:cy="284.25043"
   inkscape:window-x="-8"
   inkscape:window-y="-8"
   inkscape:window-maximized="1"
   inkscape:current-layer="Capa_1" />

<g
   id="g4"
   transform="translate(373.08672,259.16084)">
</g>
<g
   id="g6"
   transform="translate(373.08672,259.16084)">
</g>
<g
   id="g8"
   transform="translate(373.08672,259.16084)">
</g>
<g
   id="g10"
   transform="translate(373.08672,259.16084)">
</g>
<g
   id="g12"
   transform="translate(373.08672,259.16084)">
</g>
<g
   id="g14"
   transform="translate(373.08672,259.16084)">
</g>
<g
   id="g16"
   transform="translate(373.08672,259.16084)">
</g>
<g
   id="g18"
   transform="translate(373.08672,259.16084)">
</g>
<g
   id="g20"
   transform="translate(373.08672,259.16084)">
</g>
<g
   id="g22"
   transform="translate(373.08672,259.16084)">
</g>
<g
   id="g24"
   transform="translate(373.08672,259.16084)">
</g>
<g
   id="g26"
   transform="translate(373.08672,259.16084)">
</g>
<g
   id="g28"
   transform="translate(373.08672,259.16084)">
</g>
<g
   id="g30"
   transform="translate(373.08672,259.16084)">
</g>
<g
   id="g32"
   transform="translate(373.08672,259.16084)">
</g>
<g
   id="g833"
   transform="translate(2,-156.5678)"><path
     sodipodi:nodetypes="cssssccsccscccccccscccccssscccc"
     inkscape:connector-curvature="0"
     id="path827"
     d="m 120.57341,531.15835 c -2.12545,-4.24276 -9.12554,-17.53207 -15.55577,-29.53178 C 98.587411,489.62684 90.635597,473.84796 87.346941,466.56237 77.911325,445.65898 74.138444,439.92385 42.543165,398.45643 18.394648,366.76255 16.350959,363.83338 14.501421,358.26495 c -2.010183,-6.05209 -1.215455,-9.97055 2.876786,-14.18421 17.176383,-42.1072 70.771794,36.04499 89.469883,48.26807 5.61962,-2.90602 11.82722,-57.94636 11.95862,-87.68791 l 0.46753,-105.82364 2.70372,-3.54439 c 3.26208,-4.27637 9.65608,-7.38154 13.3884,-6.5019 3.97063,0.9358 8.41668,3.91516 10.7737,7.21961 l 2.12059,2.97298 c 10.75187,3.7262 9.85931,-0.15439 22.44108,-17.92718 l 2.61145,-3.76763 c 6.34485,-9.15386 17.5788,-9.11671 24.44707,0.0809 8.46093,25.70326 11.88513,32.91694 25.55373,24.69367 0.99179,-2.2421 3.21468,-5.26418 4.93975,-6.71574 2.80992,-2.36439 3.69148,-2.59905 8.46631,-2.25367 5.65272,0.40888 10.811,3.36157 13.2142,7.56402 8.37744,33.85563 12.32248,41.77843 25.24467,34.63238 3.89194,-7.11389 14.0792,-10.01306 20.26537,-5.76727 1.75267,1.20292 4.06691,3.37529 5.14274,4.82747 l 1.95607,2.64033 v 101.14969 c 0,80.9944 -0.25232,102.54706 -1.26623,108.16251 -3.67481,20.35253 -12.91514,56.35828 -20.697,80.64765 l -3.81952,11.92182 H 200.5991 124.43786 Z"
     style="opacity:1;vector-effect:none;fill:#ffffff;fill-opacity:1;stroke:none;stroke-width:21.78728676;stroke-linecap:butt;stroke-linejoin:miter;stroke-miterlimit:4;stroke-dasharray:none;stroke-dashoffset:0;stroke-opacity:1;paint-order:markers stroke fill" /><path
     inkscape:transform-center-y="-169.67259"
     inkscape:transform-center-x="-42.715763"
     sodipodi:nodetypes="cccccccscccscccccsscscccscccccccccsssssssssssssssssssccc"
     style="opacity:1;fill:#000000;stroke-width:1.26694822"
     id="path2-1"
     d="m 294.54131,215.48674 c -10.06618,-3.91054 -19.24845,-2.80841 -26.76982,0.78301 -0.64184,-15.40109 -9.56877,-33.43429 -32.59226,-36.1191 -5.901,-0.71816 -15.16826,1.58719 -18.10679,4.19231 -6.09417,-19.62743 -20.98641,-24.96722 -33.52732,-25.85621 -16.14395,0.072 -28.89837,13.32972 -31.72116,22.75284 -6.0306,-4.76852 -11.7609,-4.80622 -18.39599,-4.97977 -20.63569,0.93484 -32.92023,20.48749 -32.82556,35.1479 l 1.05603,163.52744 -37.911283,-40.56238 c -10.34708,-7.5456 -16.26633,-14.65588 -26.82416,-14.93546 l -0.19382,-0.003 c -10.15462,-0.15689 -19.66085,4.32652 -26.8967504,11.34722 -11.43095,12.79901 -18.5269897,28.43875 11.5832904,63.00602 16.88624,23.28674 26.66568,34.19062 40.43435,55.89969 10.06147,15.86495 15.62801,32.2028 22.55412,44.57787 6.00612,10.73895 25.377203,47.79038 25.539033,48.14133 2.05638,4.51857 6.5329,7.49537 11.49418,7.52421 l 155.26877,0.90273 c 5.58333,0.0325 10.5802,-3.43889 12.37368,-8.72285 3.17578,-9.3769 28.22829,-90.63154 28.09075,-122.90422 l -0.73172,-171.69464 c -1.61877,-21.02986 -14.93287,-29.22287 -21.89757,-32.02494 z m -12.50611,17.39611 c 6.77864,0.10476 14.30094,6.62664 14.29009,13.55433 l -0.28504,181.88108 c -0.33135,21.44435 -14.98546,72.52673 -24.53347,101.75184 l -145.85883,0.19147 c -5.15685,-11.16931 -22.23987,-42.7488 -26.993245,-51.24718 -7.271303,-12.99622 -9.397388,-23.56193 -19.654308,-39.73526 -13.56464,-21.38281 -36.52187,-47.98894 -55.07718,-74.55451 -3.6306,-6.62092 -6.5121,-13.73244 -1.53899,-18.55421 4.69542,-8.89936 16.54285,-7.17238 25.07934,0.60294 l 53.914263,60.90217 c 3.4594,4.08663 6.40257,7.00842 11.44055,5.20461 5.04307,-1.80498 7.37888,-4.51871 7.38143,-9.87281 l 0.0918,-192.42348 c 0.003,-6.92641 7.58056,-14.53581 14.3592,-14.43108 6.77991,0.10479 14.79999,7.04335 14.81534,13.96976 l 0.28426,128.21155 c 0.0157,7.09742 2.44233,10.05961 9.53766,10.16924 7.09531,0.10959 9.93827,-3.62832 9.95219,-10.72575 l 0.28367,-144.63771 c 0.0136,-6.9226 7.38283,-15.31227 14.38517,-14.53102 10.31202,1.15051 14.57751,7.73657 14.57565,14.65916 l -0.0428,159.52929 c -0.002,7.10124 2.4479,12.13294 9.54322,12.24256 7.09662,0.1093 11.07424,-4.28505 11.03795,-11.38746 L 218.3172,215.50323 c -0.0354,-6.92631 4.70734,-15.66232 13.93059,-15.55763 6.78028,0.077 14.73199,5.78812 14.77075,12.71442 l 0.87027,155.489 c 0.0397,7.09606 1.29589,12.86635 8.28148,13.95542 6.80953,1.06162 11.96803,-6.24555 11.44841,-13.02624 l -0.16754,-121.58049 c -0.12313,-8.08875 7.15228,-14.40819 14.58404,-14.61486 z"
     inkscape:connector-curvature="0" /></g></svg>