<?xml version="1.0" encoding="utf-8"?>
<svg xmlns="http://www.w3.org/2000/svg" height="256" width="256" viewBox="0 0 256 256">
  <g>
    <path id="path1" transform="rotate(0,128,128) translate(37,112.928124457598) scale(5.6875,5.6875)  " fill="#FFFFFF" d="M0,0L32,0 32,5.3 0,5.3z" />
  </g>
</svg>

