<?xml version="1.0" encoding="utf-8"?>
<svg xmlns="http://www.w3.org/2000/svg" height="256" width="256" viewBox="0 0 256 256">
  <g>
    <path id="path1" transform="rotate(0,128,128) translate(52.9249956607819,37) scale(5.6875,5.6875)  " fill="#FFFFFF" d="M8.7000247,26.5L26.400002,26.5 26.400002,30.200012 8.7000247,30.200012z M0,23.100006L3.5999809,23.100006 5.3999711,23.100006 5.3999711,32 3.5999809,32 0,32 0,30.200012 3.5999809,30.200012 3.5999809,28.400024 0,28.400024 0,26.600006 3.5999809,26.600006 3.5999809,24.800018 0,24.800018z M8.7000247,13.900024L26.400002,13.900024 26.400002,17.600006 8.7000247,17.600006z M0,10.600006L5.3999711,10.600006 5.3999711,12.5 5.3999711,14.200012 5.3999711,15.900024 5.3999711,16 1.7999901,16 1.7999901,17.700012 5.3999711,17.700012 5.3999711,19.600006 0,19.600006 0,18.900024 0,17.800018 0,16.100006 0,15.400024 0,14.200012 3.5999809,14.200012 3.5999809,12.5 0,12.5z M8.7000247,1.2000122L26.400002,1.2000122 26.400002,4.9000244 8.7000247,4.9000244z M0,0L3.5999809,0 3.5999809,1.9000244 3.5999809,7 1.7999901,7 1.7999901,1.9000244 0,1.9000244z" />
  </g>
</svg>

