<?xml version="1.0" encoding="utf-8"?>
<svg xmlns="http://www.w3.org/2000/svg" height="256" width="256" viewBox="0 0 256 256">
  <g>
    <ellipse cy="128" cx="128" stroke-width="8.625" ry="123.6875" rx="123.6875" stroke="#FFFFFF" fill="transparent" />
    <path id="path1" transform="rotate(0,128,128) translate(59,81.8562508225441) scale(4.3125,4.3125)  " fill="#FFFFFF" d="M11.299988,0L16.599976,0 7.0999756,8.8999959 32,8.8999959 32,12.399997 7.0999756,12.399997 16.5,21.299993 16.400024,21.399999 11.299988,21.399999 2.5999756,13.100009 0,10.699985z" />
  </g>
</svg>

