<?xml version="1.0" encoding="UTF-8" standalone="no"?>
<!-- Created with Inkscape (http://www.inkscape.org/) -->

<svg
   xmlns:dc="http://purl.org/dc/elements/1.1/"
   xmlns:cc="http://creativecommons.org/ns#"
   xmlns:rdf="http://www.w3.org/1999/02/22-rdf-syntax-ns#"
   xmlns:svg="http://www.w3.org/2000/svg"
   xmlns="http://www.w3.org/2000/svg"
   xmlns:sodipodi="http://sodipodi.sourceforge.net/DTD/sodipodi-0.dtd"
   xmlns:inkscape="http://www.inkscape.org/namespaces/inkscape"
   width="39.6875mm"
   height="39.6875mm"
   viewBox="0 0 39.6875 39.6875"
   version="1.1"
   id="svg994"
   inkscape:version="0.92.3 (2405546, 2018-03-11)"
   sodipodi:docname="Grado01.svg">
  <defs
     id="defs988" />
  <sodipodi:namedview
     id="base"
     pagecolor="#ffffff"
     bordercolor="#666666"
     borderopacity="1.0"
     inkscape:pageopacity="0.0"
     inkscape:pageshadow="2"
     inkscape:zoom="2.8"
     inkscape:cx="23.429408"
     inkscape:cy="57.446596"
     inkscape:document-units="mm"
     inkscape:current-layer="g1055-2"
     showgrid="false"
     fit-margin-top="0"
     fit-margin-left="0"
     fit-margin-right="0"
     fit-margin-bottom="0"
     inkscape:window-width="1366"
     inkscape:window-height="745"
     inkscape:window-x="-8"
     inkscape:window-y="-8"
     inkscape:window-maximized="1" />
  <metadata
     id="metadata991">
    <rdf:RDF>
      <cc:Work
         rdf:about="">
        <dc:format>image/svg+xml</dc:format>
        <dc:type
           rdf:resource="http://purl.org/dc/dcmitype/StillImage" />
        <dc:title />
      </cc:Work>
    </rdf:RDF>
  </metadata>
  <g
     inkscape:label="Capa 1"
     inkscape:groupmode="layer"
     id="layer1"
     transform="translate(-80.697917,-136.54911)">
    <g
       transform="translate(64.067813,75.140561)"
       style="display:inline"
       id="g1055-2"
       inkscape:export-filename="C:\Users\jesse\Desktop\Cuatrimestre\Proyecto Final\Imagenes\Renderizados\Grado01.png"
       inkscape:export-xdpi="96"
       inkscape:export-ydpi="96">
      <rect
         y="61.408546"
         x="16.630104"
         height="39.6875"
         width="39.6875"
         id="rect4596-7"
         style="opacity:1;fill:#000000;fill-opacity:0.52941165;stroke:none;stroke-width:0.69070148;stroke-linecap:butt;stroke-linejoin:round;stroke-miterlimit:4;stroke-dasharray:none;stroke-dashoffset:0;stroke-opacity:1;paint-order:markers stroke fill" />
      <g
         id="g836"
         transform="translate(6.4941403e-8,-1.5522461e-6)">
        <g
           id="text4629-6-1"
           style="font-style:normal;font-weight:normal;font-size:28.62628365px;line-height:125%;font-family:sans-serif;letter-spacing:0px;word-spacing:0px;opacity:1;fill:#000000;fill-opacity:0.50196078;stroke:none;stroke-width:0.29819041px;stroke-linecap:butt;stroke-linejoin:miter;stroke-opacity:1"
           inkscape:transform-center-y="1.6734296"
           inkscape:transform-center-x="1.2491235e-006"
           aria-label="1">
          <path
             id="path829"
             style="font-style:normal;font-variant:normal;font-weight:bold;font-stretch:normal;font-size:39.75872421px;font-family:sans-serif;-inkscape-font-specification:'sans-serif, Bold';font-variant-ligatures:normal;font-variant-caps:normal;font-variant-numeric:normal;font-feature-settings:normal;text-align:start;writing-mode:lr-tb;text-anchor:start;fill:#000000;fill-opacity:0.50196078;stroke-width:0.29819041px"
             d="M 45.494114,96.510666 H 26.197155 v -5.047494 h 6.09582 V 76.184795 h -6.09582 v -4.717466 q 1.397768,0 2.679055,-0.155308 1.281287,-0.174721 2.135478,-0.582403 1.009499,-0.485336 1.514248,-1.261873 0.50475,-0.776538 0.582404,-1.941344 h 6.425848 v 23.936771 h 5.959926 z"
             inkscape:connector-curvature="0" />
        </g>
        <g
           id="text4629-4"
           style="font-style:normal;font-weight:normal;font-size:28.62628174px;line-height:125%;font-family:sans-serif;letter-spacing:0px;word-spacing:0px;fill:#000000;fill-opacity:1;stroke:none;stroke-width:0.29819041px;stroke-linecap:butt;stroke-linejoin:miter;stroke-opacity:1"
           inkscape:transform-center-y="1.6734296"
           inkscape:transform-center-x="1.2491235e-006"
           aria-label="1">
          <path
             id="path826"
             style="font-style:normal;font-variant:normal;font-weight:bold;font-stretch:normal;font-size:39.75872421px;font-family:sans-serif;-inkscape-font-specification:'sans-serif, Bold';font-variant-ligatures:normal;font-variant-caps:normal;font-variant-numeric:normal;font-feature-settings:normal;text-align:start;writing-mode:lr-tb;text-anchor:start;fill:#ffffff;stroke-width:0.29819041px"
             d="M 46.750553,94.978195 H 27.453594 v -5.047494 h 6.09582 V 74.652324 h -6.09582 v -4.717466 q 1.397768,0 2.679055,-0.155307 1.281287,-0.174721 2.135478,-0.582404 1.009499,-0.485336 1.514249,-1.261873 0.504749,-0.776538 0.582403,-1.941344 h 6.425848 v 23.936771 h 5.959926 z"
             inkscape:connector-curvature="0" />
        </g>
      </g>
    </g>
  </g>
</svg>
