<?xml version="1.0" encoding="UTF-8" standalone="no"?>
<!-- Created with Inkscape (http://www.inkscape.org/) -->

<svg
   xmlns:dc="http://purl.org/dc/elements/1.1/"
   xmlns:cc="http://creativecommons.org/ns#"
   xmlns:rdf="http://www.w3.org/1999/02/22-rdf-syntax-ns#"
   xmlns:svg="http://www.w3.org/2000/svg"
   xmlns="http://www.w3.org/2000/svg"
   xmlns:sodipodi="http://sodipodi.sourceforge.net/DTD/sodipodi-0.dtd"
   xmlns:inkscape="http://www.inkscape.org/namespaces/inkscape"
   width="118.81963mm"
   height="136.51297mm"
   viewBox="0 0 118.81963 136.51297"
   version="1.1"
   id="svg8"
   inkscape:version="0.92.3 (2405546, 2018-03-11)"
   sodipodi:docname="Level-Unselected.svg">
  <defs
     id="defs2" />
  <sodipodi:namedview
     id="base"
     pagecolor="#ffffff"
     bordercolor="#666666"
     borderopacity="1.0"
     inkscape:pageopacity="0.0"
     inkscape:pageshadow="2"
     inkscape:zoom="0.98994949"
     inkscape:cx="220.06696"
     inkscape:cy="251.97139"
     inkscape:document-units="mm"
     inkscape:current-layer="layer1"
     showgrid="false"
     showguides="true"
     inkscape:guide-bbox="true"
     fit-margin-top="0"
     fit-margin-left="0"
     fit-margin-right="0"
     fit-margin-bottom="0"
     inkscape:window-width="1366"
     inkscape:window-height="745"
     inkscape:window-x="-8"
     inkscape:window-y="-8"
     inkscape:window-maximized="1" />
  <metadata
     id="metadata5">
    <rdf:RDF>
      <cc:Work
         rdf:about="">
        <dc:format>image/svg+xml</dc:format>
        <dc:type
           rdf:resource="http://purl.org/dc/dcmitype/StillImage" />
        <dc:title />
      </cc:Work>
    </rdf:RDF>
  </metadata>
  <g
     inkscape:label="Capa 1"
     inkscape:groupmode="layer"
     id="layer1"
     transform="translate(52.308781,-46.456634)">
    <g
       id="g871-6"
       transform="translate(-83.752091,5.032108)">
      <g
         id="g843-1">
        <g
           id="g837-7">
          <path
             sodipodi:nodetypes="ccccccc"
             inkscape:connector-curvature="0"
             id="rect832-2"
             d="M 31.537804,124.34389 H 150.20547 v 21.21574 l -5.57515,12.99476 H 37.284099 L 31.44331,145.55963 Z"
             style="opacity:1;vector-effect:none;fill:#552200;fill-opacity:1;stroke:none;stroke-width:1.17953563;stroke-linecap:butt;stroke-linejoin:miter;stroke-miterlimit:4;stroke-dasharray:none;stroke-dashoffset:0;stroke-opacity:1;paint-order:markers stroke fill" />
          <ellipse
             ry="32.883926"
             rx="59.342262"
             cy="145.05357"
             cx="90.865471"
             id="path815-1-6"
             style="opacity:1;vector-effect:none;fill:#552200;fill-opacity:1;stroke:none;stroke-width:1;stroke-linecap:butt;stroke-linejoin:miter;stroke-miterlimit:4;stroke-dasharray:none;stroke-dashoffset:0;stroke-opacity:1;paint-order:markers stroke fill" />
        </g>
        <ellipse
           style="opacity:1;vector-effect:none;fill:#803300;fill-opacity:1;stroke:none;stroke-width:1;stroke-linecap:butt;stroke-linejoin:miter;stroke-miterlimit:4;stroke-dasharray:none;stroke-dashoffset:0;stroke-opacity:1;paint-order:markers stroke fill"
           id="path815-9"
           cx="90.865479"
           cy="123.50893"
           rx="59.342262"
           ry="32.883926" />
      </g>
      <path
         sodipodi:nodetypes="ssccscs"
         inkscape:connector-curvature="0"
         id="path815-14-4"
         d="m 150.2139,123.2748 c 0,18.16129 -26.56843,32.88393 -59.342265,32.88393 -32.773829,0 -59.342265,-14.72264 -59.342262,-32.88393 1e-6,-9.08064 -0.06802,-32.838789 -0.06802,-32.838789 0,0 -0.02927,-49.011483 59.520994,-49.011485 58.748453,-2e-6 59.280593,49.011485 59.280593,49.011485 0,0 -0.049,23.758149 -0.049,32.838789 z"
         style="opacity:1;vector-effect:none;fill:#ff0000;fill-opacity:0.78431373;stroke:none;stroke-width:1;stroke-linecap:butt;stroke-linejoin:miter;stroke-miterlimit:4;stroke-dasharray:none;stroke-dashoffset:0;stroke-opacity:1;paint-order:markers stroke fill" />
    </g>
  </g>
</svg>
