<?xml version="1.0" encoding="UTF-8" standalone="no"?>
<!-- Created with Inkscape (http://www.inkscape.org/) -->

<svg
   xmlns:dc="http://purl.org/dc/elements/1.1/"
   xmlns:cc="http://creativecommons.org/ns#"
   xmlns:rdf="http://www.w3.org/1999/02/22-rdf-syntax-ns#"
   xmlns:svg="http://www.w3.org/2000/svg"
   xmlns="http://www.w3.org/2000/svg"
   xmlns:sodipodi="http://sodipodi.sourceforge.net/DTD/sodipodi-0.dtd"
   xmlns:inkscape="http://www.inkscape.org/namespaces/inkscape"
   width="127.10298mm"
   height="49.311367mm"
   viewBox="0 0 127.10298 49.311367"
   version="1.1"
   id="svg994"
   inkscape:version="0.92.3 (2405546, 2018-03-11)"
   sodipodi:docname="Logo-Calculapp.svg"
   inkscape:export-filename="C:\Users\jesse\Desktop\Cuatrimestre\Proyecto Final\Imagenes\Renderizados\Logo Calculapp-02.png"
   inkscape:export-xdpi="96"
   inkscape:export-ydpi="96">
  <defs
     id="defs988" />
  <sodipodi:namedview
     id="base"
     pagecolor="#ffffff"
     bordercolor="#666666"
     borderopacity="1.0"
     inkscape:pageopacity="0.0"
     inkscape:pageshadow="2"
     inkscape:zoom="1.4"
     inkscape:cx="111.84479"
     inkscape:cy="26.9006"
     inkscape:document-units="mm"
     inkscape:current-layer="layer1"
     showgrid="false"
     fit-margin-top="0"
     fit-margin-left="0"
     fit-margin-right="0"
     fit-margin-bottom="0"
     inkscape:window-width="1366"
     inkscape:window-height="745"
     inkscape:window-x="-8"
     inkscape:window-y="-8"
     inkscape:window-maximized="1"
     inkscape:object-nodes="false"
     inkscape:snap-nodes="false" />
  <metadata
     id="metadata991">
    <rdf:RDF>
      <cc:Work
         rdf:about="">
        <dc:format>image/svg+xml</dc:format>
        <dc:type
           rdf:resource="http://purl.org/dc/dcmitype/StillImage" />
        <dc:title />
      </cc:Work>
    </rdf:RDF>
  </metadata>
  <g
     inkscape:label="Capa 1"
     inkscape:groupmode="layer"
     id="layer1"
     transform="translate(31.865424,-90.108095)">
    <g
       id="g1151"
       transform="rotate(-7.2841272,31.546034,115.72442)">
      <g
         id="g1122">
        <path
           sodipodi:nodetypes="cscccccccsssccccccccc"
           inkscape:connector-curvature="0"
           id="path934-46-9"
           d="M 91.955924,114.28045 C 90.406781,105.91987 86.470257,98.697175 73.700677,98.630822 59.740536,98.558282 57.045802,107.79607 57.045802,107.79607 l -23.128838,0.28805 0.767315,-4.98535 -13.982417,-1.55948 0.806577,6.11603 -26.2477698,0.34318 -1.320546,-5.70454 c 0,0 -11.1773692,-1.77451 -17.6949792,1.72435 -6.517605,3.49885 -8.230662,6.85762 -8.831177,13.54043 -0.670511,7.46175 7.960563,17.01718 17.934767,15.65615 l 6.9557552,-0.94915 2.322199,-5.32196 23.8848708,-0.0828 -1.944222,5.35976 26.267392,0.0998 -2.664095,-6.42451 16.747306,-0.056 c 0,0 2.603743,9.36862 13.442287,9.39506 14.823038,1.82232 22.832045,-7.18977 21.595697,-20.95465 z"
           style="fill:#000000;fill-opacity:0.48235294;fill-rule:evenodd;stroke:none;stroke-width:0.26458332px;stroke-linecap:butt;stroke-linejoin:miter;stroke-opacity:1" />
        <path
           sodipodi:nodetypes="cscccccccsssccccccccc"
           inkscape:connector-curvature="0"
           id="path934-46"
           d="M 95.589998,111.63018 C 94.040856,103.2696 90.104331,96.046903 77.334752,95.98055 63.374611,95.908012 60.679877,105.1458 60.679877,105.1458 l -23.128838,0.28805 0.767314,-4.98535 -13.982416,-1.559485 0.806578,6.116035 -26.2477707,0.34318 -1.3205467,-5.704544 c 0,0 -11.1773676,-1.774508 -17.6949776,1.724354 -6.517605,3.49885 -8.230662,6.85762 -8.831177,13.54043 -0.670511,7.46175 7.960563,17.01718 17.934767,15.65614 l 6.9557544,-0.94915 2.3221992,-5.32195 23.8848714,-0.0828 -1.944222,5.35976 26.267391,0.0998 -2.664096,-6.42451 16.747306,-0.056 c 0,0 2.603743,9.36863 13.442287,9.39507 14.823038,1.82232 22.832046,-7.18977 21.595697,-20.95465 z"
           style="fill:#ffffff;fill-opacity:1;fill-rule:evenodd;stroke:none;stroke-width:0.26458332px;stroke-linecap:butt;stroke-linejoin:miter;stroke-opacity:1" />
      </g>
      <g
         id="g1034"
         style="display:inline;enable-background:new"
         transform="matrix(0.34323907,0.00779134,-0.00779134,0.34323907,143.23877,96.855586)">
        <circle
           style="opacity:1;vector-effect:none;fill:#00aad4;fill-opacity:1;stroke:none;stroke-width:0.82449174px;stroke-linecap:butt;stroke-linejoin:miter;stroke-miterlimit:4;stroke-dasharray:none;stroke-dashoffset:0;stroke-opacity:1;paint-order:markers stroke fill"
           id="path1137"
           cx="-191.34941"
           cy="57.541893"
           r="43.956627" />
        <g
           id="g1023"
           transform="translate(0.00412953,0.00416262)">
          <path
             inkscape:connector-curvature="0"
             id="rect1000"
             d="m -206.82768,29.319189 c -2.22589,0 -4.01784,1.791949 -4.01784,4.017843 v 6.964433 h -6.96444 c -2.22589,0 -4.01784,1.791948 -4.01784,4.017843 0,2.225892 1.79195,4.017841 4.01784,4.017841 h 6.96444 v 6.964434 c 0,2.225891 1.79195,4.017843 4.01784,4.017843 2.22589,0 4.01784,-1.791952 4.01784,-4.017843 v -6.964434 h 6.96392 c 2.22589,0 4.01836,-1.791949 4.01836,-4.017841 0,-2.225895 -1.79247,-4.017843 -4.01836,-4.017843 h -6.96392 v -6.964433 c 0,-2.225894 -1.79195,-4.017843 -4.01784,-4.017843 z"
             style="opacity:1;vector-effect:none;fill:#0000ff;fill-opacity:1;stroke:#000000;stroke-width:2;stroke-linecap:butt;stroke-linejoin:miter;stroke-miterlimit:4;stroke-dasharray:none;stroke-dashoffset:0;stroke-opacity:1;paint-order:markers stroke fill" />
          <g
             style="fill:#ffffff;stroke:#000000;stroke-width:2;stroke-miterlimit:4;stroke-dasharray:none;stroke-opacity:1"
             transform="rotate(45,-225.49931,104.13575)"
             id="g1115">
            <ellipse
               style="opacity:1;vector-effect:none;fill:#ff0000;fill-opacity:1;stroke:#000000;stroke-width:2;stroke-linecap:butt;stroke-linejoin:miter;stroke-miterlimit:4;stroke-dasharray:none;stroke-dashoffset:0;stroke-opacity:1;paint-order:markers stroke fill"
               id="path1032"
               cx="-220.13693"
               cy="45.446236"
               rx="3.9206395"
               ry="3.6280031" />
            <ellipse
               style="display:inline;opacity:1;vector-effect:none;fill:#ff0000;fill-opacity:1;stroke:#000000;stroke-width:2;stroke-linecap:butt;stroke-linejoin:miter;stroke-miterlimit:4;stroke-dasharray:none;stroke-dashoffset:0;stroke-opacity:1;paint-order:markers stroke fill"
               id="path1032-5"
               cx="-199.70834"
               cy="45.446236"
               rx="3.9206395"
               ry="3.6280031" />
            <rect
               style="display:inline;opacity:1;vector-effect:none;fill:#ff0000;fill-opacity:1;stroke:#000000;stroke-width:2;stroke-linecap:butt;stroke-linejoin:miter;stroke-miterlimit:4;stroke-dasharray:none;stroke-dashoffset:0;stroke-opacity:1;paint-order:markers stroke fill"
               id="rect1000-7"
               width="8.7546663"
               height="30.244545"
               x="-214.29997"
               y="30.323963"
               ry="4.0506086" />
          </g>
          <rect
             transform="rotate(90)"
             ry="4.0178571"
             y="191.82768"
             x="69.683907"
             height="30"
             width="7.9329171"
             id="rect1000-5-2"
             style="display:inline;opacity:1;vector-effect:none;fill:#00ff00;fill-opacity:1;stroke:#000000;stroke-width:2;stroke-linecap:butt;stroke-linejoin:miter;stroke-miterlimit:4;stroke-dasharray:none;stroke-dashoffset:0;stroke-opacity:1;paint-order:markers stroke fill" />
          <path
             inkscape:connector-curvature="0"
             id="rect1000-0"
             d="m -180.7506,32.53243 c -1.02704,0 -2.0542,0.393317 -2.84117,1.180289 -1.57395,1.573945 -1.57395,4.10788 0,5.681824 l 4.92476,4.924765 -4.92476,4.924245 c -1.57395,1.573945 -1.57395,4.108397 0,5.682342 1.57394,1.573943 4.10839,1.573943 5.68234,0 l 4.92424,-4.924763 4.92477,4.924763 c 1.57394,1.573943 4.10788,1.573943 5.68182,0 1.57394,-1.573945 1.57394,-4.108397 0,-5.682342 l -4.92425,-4.924245 4.92425,-4.924765 c 1.57394,-1.573944 1.57394,-4.10788 0,-5.681824 -1.57394,-1.573944 -4.10788,-1.573944 -5.68182,0 l -4.92477,4.924248 -4.92424,-4.924248 c -0.78698,-0.786972 -1.81413,-1.180289 -2.84117,-1.180289 z"
             style="opacity:1;vector-effect:none;fill:#ffff00;fill-opacity:1;stroke:#000000;stroke-width:2;stroke-linecap:butt;stroke-linejoin:miter;stroke-miterlimit:4;stroke-dasharray:none;stroke-dashoffset:0;stroke-opacity:1;paint-order:markers stroke fill" />
        </g>
      </g>
      <g
         id="g1118">
        <g
           aria-label="ALCU"
           style="font-style:normal;font-weight:normal;font-size:14.11111069px;line-height:125%;font-family:sans-serif;letter-spacing:0px;word-spacing:0px;fill:#00ffff;fill-opacity:1;stroke:none;stroke-width:0.34898657px;stroke-linecap:butt;stroke-linejoin:miter;stroke-opacity:1"
           id="text4787-3"
           transform="rotate(-0.2981566,19673.573,10892.842)">
          <path
             d="M 43.153333,17.408188 43.725219,16.416 47.287448,9.7049546 47.666408,8.9539238 q 0.165365,-0.3307292 0.461643,-0.9508463 1.212674,0.01378 1.770779,0.01378 0.971517,0 1.79834,-0.01378 l 1.005968,2.8732095 2.046387,5.525933 0.399631,1.005968 q -1.192003,-0.01378 -1.44694,-0.01378 -0.578776,0 -1.701878,0.01378 -0.303168,-1.136882 -0.875054,-2.673394 h -3.472656 q -0.599447,1.212673 -1.240234,2.673394 -1.281576,-0.01378 -1.570964,-0.01378 -0.523654,0 -1.688097,0.01378 z m 5.333008,-4.67844 H 50.62919 Q 49.829928,10.297511 49.754136,10.049464 49.299384,11.062322 48.982435,11.71 Z"
             style="font-style:normal;font-variant:normal;font-weight:normal;font-stretch:normal;font-family:'Eras Bold ITC';-inkscape-font-specification:'Eras Bold ITC';fill:#00ffff;stroke-width:0.34898657px"
             id="path891"
             inkscape:connector-curvature="0" />
          <path
             d="m 55.810614,17.408188 q 0.172254,-1.626085 0.248046,-2.652724 0.144694,-1.874131 0.213596,-3.720703 0.07579,-1.8534609 0.07579,-3.0316835 0.937066,0.01378 1.660536,0.01378 0.489204,0 1.405599,-0.01378 l -0.165364,2.4942495 -0.206706,3.899848 -0.02756,0.957736 q 1.185113,0.02067 1.543403,0.02067 1.81212,0 2.742296,-0.04823 l -0.151584,2.080838 q -1.81212,-0.01378 -3.451986,-0.01378 -2.218641,0 -3.886067,0.01378 z"
             style="font-style:normal;font-variant:normal;font-weight:normal;font-stretch:normal;font-family:'Eras Bold ITC';-inkscape-font-specification:'Eras Bold ITC';fill:#00ffff;stroke-width:0.34898657px"
             id="path893"
             inkscape:connector-curvature="0" />
          <path
             d="m 72.29195,15.113754 q -0.08268,0.406522 -0.199816,1.136882 -0.117133,0.72347 -0.158474,1.123101 -1.474501,0.213596 -2.632053,0.213596 -1.116211,0 -2.080838,-0.275608 -0.957736,-0.282498 -1.763889,-0.916395 -0.799262,-0.640788 -1.143771,-1.502062 -0.34451,-0.861274 -0.34451,-1.929253 0,-1.247125 0.461643,-2.239312 0.468533,-0.9990778 1.336697,-1.6605362 0.875054,-0.6683485 1.915473,-0.9508463 1.040419,-0.289388 2.149739,-0.289388 1.019749,0 2.52181,0.2618273 l 0.01378,0.578776 q 0.01378,0.3789605 0.04134,0.8337131 l 0.04823,0.7854821 q -0.806152,-0.192926 -1.309136,-0.261828 -0.496094,-0.068902 -0.923286,-0.068902 -0.930175,0 -1.674316,0.37207 -0.744141,0.37207 -1.171332,1.08176 -0.427192,0.709689 -0.427192,1.570963 0,0.785482 0.35829,1.350478 0.35829,0.558105 0.964626,0.868164 0.613227,0.303168 1.508952,0.303168 0.489204,0 1.061089,-0.07579 0.578777,-0.08268 1.446941,-0.310059 z"
             style="font-style:normal;font-variant:normal;font-weight:normal;font-stretch:normal;font-family:'Eras Bold ITC';-inkscape-font-specification:'Eras Bold ITC';fill:#00ffff;stroke-width:0.34898657px"
             id="path895"
             inkscape:connector-curvature="0" />
          <path
             d="m 74.014498,8.0030775 q 1.07487,0.01378 1.515842,0.01378 0.551215,0 1.467611,-0.01378 l -0.206706,2.9283315 q -0.06201,0.826822 -0.09646,1.550292 -0.02756,0.72347 -0.02756,0.999078 0,0.523655 0.07579,0.875054 0.07579,0.3514 0.275608,0.599447 0.199816,0.241157 0.551215,0.36518 0.35829,0.124023 0.744141,0.124023 0.330729,0 0.620117,-0.07579 0.227376,-0.06201 0.406521,-0.172254 0.158475,-0.103353 0.275608,-0.241157 0.144694,-0.165365 0.254937,-0.413411 0.110243,-0.234267 0.165365,-0.606337 0.06201,-0.378961 0.165364,-1.722548 0.08957,-1.143772 0.137804,-2.094618 0.04134,-0.9232855 0.07579,-2.1152885 1.040419,0.01378 1.639866,0.01378 l 1.398708,-0.01378 -0.337619,4.8920355 q -0.0069,0.137804 -0.0069,0.227376 -0.02756,1.43316 -0.179145,2.025716 -0.144694,0.585667 -0.489204,1.019749 -0.344509,0.434082 -1.005968,0.785481 -0.661458,0.34451 -1.502061,0.489204 -0.840603,0.144694 -1.701877,0.144694 -0.771702,0 -1.488282,-0.110243 -0.661458,-0.110243 -1.192003,-0.316949 -0.530544,-0.213596 -0.923285,-0.496094 -0.35829,-0.261827 -0.551215,-0.530544 -0.192926,-0.275608 -0.303169,-0.654569 -0.124023,-0.427191 -0.124023,-0.916395 0,-0.165364 0.01378,-0.496094 0.01378,-0.337619 0.06201,-0.964626 l 0.08957,-1.102431 q 0.03445,-0.434082 0.07579,-1.274685 z"
             style="font-style:normal;font-variant:normal;font-weight:normal;font-stretch:normal;font-family:'Eras Bold ITC';-inkscape-font-specification:'Eras Bold ITC';fill:#00ffff;stroke-width:0.34898657px"
             id="path897"
             inkscape:connector-curvature="0" />
        </g>
        <g
           aria-label="C"
           style="font-style:normal;font-weight:normal;font-size:31.88910103px;line-height:125%;font-family:sans-serif;letter-spacing:0px;word-spacing:0px;fill:#00ffff;fill-opacity:1;stroke:none;stroke-width:0.7972275px;stroke-linecap:butt;stroke-linejoin:miter;stroke-opacity:1"
           id="text4815-0"
           transform="rotate(-0.2981566,19673.573,10892.842)">
          <path
             d="m 51.109983,18.315195 q -0.18685,0.91868 -0.451555,2.56919 -0.264704,1.634939 -0.358129,2.538049 -3.332162,0.482696 -5.948065,0.482696 -2.522478,0 -4.702397,-0.622834 -2.164348,-0.638405 -3.986137,-2.070923 -1.806219,-1.448089 -2.584761,-3.394445 -0.778543,-1.946357 -0.778543,-4.359838 0,-2.818324 1.043247,-5.0605266 1.058818,-2.2577733 3.020745,-3.7525749 1.977498,-1.5103724 4.328696,-2.1487773 2.351199,-0.6539757 4.858106,-0.6539757 2.304485,0 5.698931,0.5916923 l 0.03114,1.3079514 q 0.03114,0.8563968 0.09343,1.8840729 L 51.483684,7.400029 Q 49.661894,6.9640452 48.525222,6.8083367 47.404121,6.6526282 46.438728,6.6526282 q -2.102065,0 -3.783716,0.8408259 -1.681652,0.8408259 -2.647045,2.4446235 -0.965393,1.6037974 -0.965393,3.5501534 0,1.775077 0.809685,3.051887 0.809684,1.261239 2.179919,1.961927 1.385805,0.685118 3.410016,0.685118 1.10553,0 2.397911,-0.17128 1.307951,-0.18685 3.269878,-0.700688 z"
             style="font-style:normal;font-variant:normal;font-weight:normal;font-stretch:normal;font-family:'Eras Bold ITC';-inkscape-font-specification:'Eras Bold ITC';fill:#00ffff;stroke-width:0.7972275px"
             id="path888"
             inkscape:connector-curvature="0" />
        </g>
        <g
           aria-label="L"
           transform="matrix(0.89395671,-0.00465202,0.005821,1.1185921,-56.417697,102.52465)"
           style="font-style:normal;font-weight:normal;font-size:28.05014801px;line-height:125%;font-family:sans-serif;letter-spacing:0px;word-spacing:0px;fill:#800080;fill-opacity:1;stroke:none;stroke-width:0.70125371px;stroke-linecap:butt;stroke-linejoin:miter;stroke-opacity:1"
           id="text4819-6">
          <path
             d="m 93.537764,20.461658 q 0.342409,-3.232341 0.493069,-5.273099 0.287624,-3.72541 0.424588,-7.3960348 0.15066,-3.6843212 0.15066,-6.0263989 1.862705,0.027393 3.300823,0.027393 0.972441,0 2.794056,-0.027393 l -0.32871,4.9580828 -0.410892,7.7521409 -0.05479,1.903794 q 2.355782,0.04109 3.067992,0.04109 3.60214,0 5.45115,-0.09587 l -0.30132,4.136301 q -3.60214,-0.02739 -6.86188,-0.02739 -4.41023,0 -7.72475,0.02739 z"
             style="font-style:normal;font-variant:normal;font-weight:normal;font-stretch:normal;font-family:'Eras Bold ITC';-inkscape-font-specification:'Eras Bold ITC';fill:#800080;stroke-width:0.70125371px"
             id="path900"
             inkscape:connector-curvature="0" />
        </g>
        <g
           aria-label="APP"
           style="font-style:normal;font-weight:normal;font-size:14.11111069px;line-height:125%;font-family:sans-serif;letter-spacing:0px;word-spacing:0px;fill:#ff6600;fill-opacity:1;stroke:none;stroke-width:0.26458332px;stroke-linecap:butt;stroke-linejoin:miter;stroke-opacity:1"
           id="text4823-4"
           transform="rotate(-0.2981566,19673.573,10892.842)">
          <path
             d="m 90.169954,16.798941 0.571886,-0.992188 3.562229,-6.7110456 0.37896,-0.7510308 q 0.165365,-0.3307292 0.461643,-0.9508463 1.212673,0.01378 1.770779,0.01378 0.971517,0 1.79834,-0.01378 l 1.005968,2.8732097 2.046391,5.525933 0.39963,1.005968 q -1.19201,-0.01378 -1.44694,-0.01378 -0.57878,0 -1.701881,0.01378 -0.303168,-1.136882 -0.875054,-2.673394 h -3.472656 q -0.599447,1.212673 -1.240235,2.673394 -1.281575,-0.01378 -1.570963,-0.01378 -0.523655,0 -1.688097,0.01378 z m 5.333008,-4.67844 h 2.142849 Q 96.846549,9.6882638 96.770757,9.4402169 96.316004,10.453075 95.999055,11.100753 Z"
             style="font-style:normal;font-variant:normal;font-weight:normal;font-stretch:normal;font-family:'Eras Bold ITC';-inkscape-font-specification:'Eras Bold ITC';fill:#ff6600;stroke-width:0.26458332px"
             id="path903"
             inkscape:connector-curvature="0" />
          <path
             d="m 102.9237,16.798941 0.1378,-1.763889 0.17915,-3.445096 0.0758,-2.4391271 q 0.007,-0.3927409 0.007,-0.7854817 0,-0.2962782 -0.007,-0.9715169 0.9095,0.02067 1.46072,0.02067 0.53054,0 1.45383,-0.027561 0.92328,-0.034451 1.56407,-0.034451 0.92329,0 1.36426,0.1171333 0.44786,0.1171332 0.80615,0.3720703 0.35829,0.2480468 0.59256,0.5856662 0.23426,0.3376193 0.3514,0.7717013 0.11713,0.4271919 0.11713,0.8750536 0,0.923286 -0.44786,1.688097 -0.44786,0.764811 -1.26091,1.143772 -0.81304,0.37896 -1.8259,0.37896 -0.37207,0 -0.86127,-0.08268 -0.0551,-0.316949 -0.20671,-0.943956 -0.15158,-0.627007 -0.24804,-0.930176 0.30317,0.06201 0.63389,0.06201 0.69591,0 1.03353,-0.330729 0.34451,-0.33762 0.34451,-0.819933 0,-0.234266 -0.0758,-0.4134112 -0.0758,-0.1860351 -0.24116,-0.3031684 -0.16536,-0.1171332 -0.36518,-0.1515842 -0.19981,-0.034451 -0.45475,-0.034451 -0.24805,0 -0.51676,0.01378 l -0.57878,0.041341 q -0.0896,1.3298068 -0.1378,2.9558918 -0.0896,2.962782 -0.0896,3.555339 v 0.895725 l -1.37114,-0.01378 q -0.28939,0 -1.43316,0.01378 z"
             style="font-style:normal;font-variant:normal;font-weight:normal;font-stretch:normal;font-family:'Eras Bold ITC';-inkscape-font-specification:'Eras Bold ITC';fill:#ff6600;stroke-width:0.26458332px"
             id="path905"
             inkscape:connector-curvature="0" />
          <path
             d="m 111.93607,16.798941 0.1378,-1.763889 0.17914,-3.445096 0.0758,-2.4391271 q 0.007,-0.3927409 0.007,-0.7854817 0,-0.2962782 -0.007,-0.9715169 0.9095,0.02067 1.46072,0.02067 0.53054,0 1.45383,-0.027561 0.92328,-0.034451 1.56407,-0.034451 0.92329,0 1.36426,0.1171333 0.44786,0.1171332 0.80615,0.3720703 0.35829,0.2480468 0.59256,0.5856662 0.23426,0.3376193 0.3514,0.7717013 0.11713,0.4271919 0.11713,0.8750536 0,0.923286 -0.44786,1.688097 -0.44786,0.764811 -1.26091,1.143772 -0.81304,0.37896 -1.8259,0.37896 -0.37207,0 -0.86127,-0.08268 -0.0551,-0.316949 -0.20671,-0.943956 -0.15158,-0.627007 -0.24804,-0.930176 0.30316,0.06201 0.63389,0.06201 0.69591,0 1.03353,-0.330729 0.34451,-0.33762 0.34451,-0.819933 0,-0.234266 -0.0758,-0.4134112 -0.0758,-0.1860351 -0.24116,-0.3031684 -0.16536,-0.1171332 -0.36518,-0.1515842 -0.19981,-0.034451 -0.45475,-0.034451 -0.24805,0 -0.51676,0.01378 l -0.57878,0.041341 q -0.0896,1.3298068 -0.1378,2.9558918 -0.0896,2.962782 -0.0896,3.555339 v 0.895725 l -1.37114,-0.01378 q -0.28939,0 -1.43316,0.01378 z"
             style="font-style:normal;font-variant:normal;font-weight:normal;font-stretch:normal;font-family:'Eras Bold ITC';-inkscape-font-specification:'Eras Bold ITC';fill:#ff6600;stroke-width:0.26458332px"
             id="path907"
             inkscape:connector-curvature="0" />
        </g>
      </g>
    </g>
  </g>
</svg>
