﻿{
      "Programadores": [
      {
        "Nombre": "Jesse",
        "Apellido": "Jose",
        "Aporte": "Front-End & Midle-End"
      },
      {
        "Nombre": "Jorge",
        "Apellido": "Liberata",
        "Aporte": "Back-End"
      }
    ],
    "Diseñadores": [
      {
        "Nombre": "Jesse",
        "Apellido": "Jose",
        "Aporte": "Interfaz de usuario"
      },
      {
        "Nombre": "Pixel",
        "Apellido": "Buddha",
        "Aporte": "Logo Calculapp",
        "Referencia": "https://www.flaticon.com"
      }
    ],
    "Músicos": [
      {
        "Nombre": "Canciones para niños",
        "Apellido": "(Canal de YouTube)",
        "Aporte": "Musica de fondo",
        "Referencia": "https://www.youtube.com/watch?v=zOkOM-0FkkU"

      }
    ],
    "Colaboradores": [
      {
        "Nombre": "Jeffrey",
        "Apellido": "Jose",
        "Aporte": "Algoritmos"
      }
    ],
    "Asesores": [
      {
        "Nombre": "José",
        "Apellido": "Abreu"
      },
      {
        "Nombre": "Héctor",
        "Apellido": "Canario"
      },
      {
        "Nombre": "Leidy",
        "Apellido": "Gomez"
      },
      {
        "Nombre": "Altagracia",
        "Apellido": "Espinal"
      }
    ],
    "Agradecimientos": [
      {
        "Nombre": "Maria",
        "Apellido": "del Calmen"
      },
      {
        "Nombre": "Juan",
        "Apellido": "Jose"
      },
      {
        "Nombre": "Roselis",
        "Apellido": "Méndez"
      }
    ]
}
