﻿{
  "1ro": {
    "HasFractions": false,
    "HasNegative": false,
    "Addition": {
      "LastLevelPassed": 0,
      "Levels": [
        {
          "Name": "SanJoseDeOcoa",
          "Number": 1,
          "Min": 1,
          "Max": 10
        },
        {
          "Name": "Peravia",
          "Number": 2,
          "Min": 1,
          "Max": 10
        },
        {
          "Name": "SanCristobal",
          "Number": 3,
          "Min": 1,
          "Max": 10
        },
        {
          "Name": "SantoDomingo",
          "Number": 4,
          "Min": 1,
          "Max": 10
        },
        {
          "Name": "SanPedroDeMacoris",
          "Number": 5,
          "Min": 1,
          "Max": 10
        },
        {
          "Name": "LaRomana",
          "Number": 6,
          "Min": 1,
          "Max": 10
        },
        {
          "Name": "LaAltagracia",
          "Number": 7,
          "Min": 1,
          "Max": 10
        },
        {
          "Name": "ElSeibo",
          "Number": 8,
          "Min": 1,
          "Max": 10
        },
        {
          "Name": "HatoMayor",
          "Number": 9,
          "Min": 1,
          "Max": 10
        },
        {
          "Name": "MontePlata",
          "Number": 10,
          "Min": 1,
          "Max": 10
        }
      ]
    },
    "Subtraction": {
      "LastLevelPassed": 0,
      "Levels": [
        {
          "Name": "MonsegnorNouel",
          "Number": 1,
          "Min": 1,
          "Max": 10
        },
        {
          "Name": "SanchezRamirez",
          "Number": 2,
          "Min": 1,
          "Max": 10
        },
        {
          "Name": "Duarte",
          "Number": 3,
          "Min": 1,
          "Max": 10
        },
        {
          "Name": "HermanasMirabal",
          "Number": 4,
          "Min": 1,
          "Max": 10
        },
        {
          "Name": "LaVega",
          "Number": 5,
          "Min": 1,
          "Max": 10
        },
        {
          "Name": "Santiago",
          "Number": 6,
          "Min": 1,
          "Max": 10
        },
        {
          "Name": "PuertoPlata",
          "Number": 7,
          "Min": 1,
          "Max": 10
        },
        {
          "Name": "Espaillat",
          "Number": 8,
          "Min": 1,
          "Max": 10
        },
        {
          "Name": "MariaTrinidadSanchez",
          "Number": 9,
          "Min": 1,
          "Max": 10
        },
        {
          "Name": "Samana",
          "Number": 10,
          "Min": 1,
          "Max": 10
        }
      ]
    }
  },
  "2do": {
    "HasFractions": false,
    "HasNegative": false,
    "Addition": {
      "LastLevelPassed": 0,
      "Levels": [
        {
          "Name": "SanJoseDeOcoa",
          "Number": 1,
          "Min": 1,
          "Max": 10
        },
        {
          "Name": "Peravia",
          "Number": 2,
          "Min": 1,
          "Max": 10
        },
        {
          "Name": "SanCristobal",
          "Number": 3,
          "Min": 1,
          "Max": 10
        },
        {
          "Name": "SantoDomingo",
          "Number": 4,
          "Min": 1,
          "Max": 10
        },
        {
          "Name": "SanPedroDeMacoris",
          "Number": 5,
          "Min": 1,
          "Max": 10
        },
        {
          "Name": "LaRomana",
          "Number": 6,
          "Min": 1,
          "Max": 10
        },
        {
          "Name": "LaAltagracia",
          "Number": 7,
          "Min": 1,
          "Max": 10
        },
        {
          "Name": "ElSeibo",
          "Number": 8,
          "Min": 1,
          "Max": 10
        },
        {
          "Name": "HatoMayor",
          "Number": 9,
          "Min": 1,
          "Max": 10
        },
        {
          "Name": "MontePlata",
          "Number": 10,
          "Min": 1,
          "Max": 10
        }
      ]
    },
    "Subtraction": {
      "LastLevelPassed": 0,
      "Levels": [
        {
          "Name": "MonsegnorNouel",
          "Number": 1,
          "Min": 1,
          "Max": 10
        },
        {
          "Name": "SanchezRamirez",
          "Number": 2,
          "Min": 1,
          "Max": 10
        },
        {
          "Name": "Duarte",
          "Number": 3,
          "Min": 1,
          "Max": 10
        },
        {
          "Name": "HermanasMirabal",
          "Number": 4,
          "Min": 1,
          "Max": 10
        },
        {
          "Name": "LaVega",
          "Number": 5,
          "Min": 1,
          "Max": 10
        },
        {
          "Name": "Santiago",
          "Number": 6,
          "Min": 1,
          "Max": 10
        },
        {
          "Name": "PuertoPlata",
          "Number": 7,
          "Min": 1,
          "Max": 10
        },
        {
          "Name": "Espaillat",
          "Number": 8,
          "Min": 1,
          "Max": 10
        },
        {
          "Name": "MariaTrinidadSanchez",
          "Number": 9,
          "Min": 1,
          "Max": 10
        },
        {
          "Name": "Samana",
          "Number": 10,
          "Min": 1,
          "Max": 10
        }
      ]
    },
    "Multiplication": {
      "LastLevelPassed": 0,
      "Levels": [
        {
          "Name": "MonteCristi",
          "Number": 1,
          "Min": 1,
          "Max": 10
        },
        {
          "Name": "Valverde",
          "Number": 2,
          "Min": 1,
          "Max": 10
        },
        {
          "Name": "SantiagoRodriguez",
          "Number": 3,
          "Min": 1,
          "Max": 10
        },
        {
          "Name": "Dajabon",
          "Number": 4,
          "Min": 1,
          "Max": 10
        },
        {
          "Name": "EliasPigna",
          "Number": 5,
          "Min": 1,
          "Max": 10
        },
        {
          "Name": "SanJuan",
          "Number": 6,
          "Min": 1,
          "Max": 10
        },
        {
          "Name": "Independencia",
          "Number": 7,
          "Min": 1,
          "Max": 10
        },
        {
          "Name": "Bahoruco",
          "Number": 8,
          "Min": 1,
          "Max": 10
        },
        {
          "Name": "Azua",
          "Number": 9,
          "Min": 1,
          "Max": 10
        },
        {
          "Name": "Barahona",
          "Number": 10,
          "Min": 1,
          "Max": 10
        }
      ]
    },
    "Division": {
      "LastLevelPassed": 0,
      "Levels": [
        {
          "Name": "Pedernales",
          "Number": 1,
          "Min": 1,
          "Max": 10
        },
        {
          "Name": "Barahona",
          "Number": 2,
          "Min": 1,
          "Max": 10
        },
        {
          "Name": "Azua",
          "Number": 3,
          "Min": 1,
          "Max": 10
        },
        {
          "Name": "LaVega",
          "Number": 4,
          "Min": 1,
          "Max": 10
        },
        {
          "Name": "Duarte",
          "Number": 5,
          "Min": 1,
          "Max": 10
        },
        {
          "Name": "Samana",
          "Number": 6,
          "Min": 1,
          "Max": 10
        },
        {
          "Name": "MontePlata",
          "Number": 7,
          "Min": 1,
          "Max": 10
        },
        {
          "Name": "HatoMayor",
          "Number": 8,
          "Min": 1,
          "Max": 10
        },
        {
          "Name": "ElSeibo",
          "Number": 9,
          "Min": 1,
          "Max": 10
        },
        {
          "Name": "LaAltagracia",
          "Number": 10,
          "Min": 1,
          "Max": 10
        }
      ]
    }
  },
  "3ro": {
    "HasFractions": false,
    "HasNegative": false,
    "Addition": {
      "LastLevelPassed": 0,
      "Levels": [
        {
          "Name": "SanJoseDeOcoa",
          "Number": 1,
          "Min": 1,
          "Max": 10
        },
        {
          "Name": "Peravia",
          "Number": 2,
          "Min": 1,
          "Max": 10
        },
        {
          "Name": "SanCristobal",
          "Number": 3,
          "Min": 1,
          "Max": 10
        },
        {
          "Name": "SantoDomingo",
          "Number": 4,
          "Min": 1,
          "Max": 10
        },
        {
          "Name": "SanPedroDeMacoris",
          "Number": 5,
          "Min": 1,
          "Max": 10
        },
        {
          "Name": "LaRomana",
          "Number": 6,
          "Min": 1,
          "Max": 10
        },
        {
          "Name": "LaAltagracia",
          "Number": 7,
          "Min": 1,
          "Max": 10
        },
        {
          "Name": "ElSeibo",
          "Number": 8,
          "Min": 1,
          "Max": 10
        },
        {
          "Name": "HatoMayor",
          "Number": 9,
          "Min": 1,
          "Max": 10
        },
        {
          "Name": "MontePlata",
          "Number": 10,
          "Min": 1,
          "Max": 10
        }
      ]
    },
    "Subtraction": {
      "LastLevelPassed": 0,
      "Levels": [
        {
          "Name": "MonsegnorNouel",
          "Number": 1,
          "Min": 1,
          "Max": 10
        },
        {
          "Name": "SanchezRamirez",
          "Number": 2,
          "Min": 1,
          "Max": 10
        },
        {
          "Name": "Duarte",
          "Number": 3,
          "Min": 1,
          "Max": 10
        },
        {
          "Name": "HermanasMirabal",
          "Number": 4,
          "Min": 1,
          "Max": 10
        },
        {
          "Name": "LaVega",
          "Number": 5,
          "Min": 1,
          "Max": 10
        },
        {
          "Name": "Santiago",
          "Number": 6,
          "Min": 1,
          "Max": 10
        },
        {
          "Name": "PuertoPlata",
          "Number": 7,
          "Min": 1,
          "Max": 10
        },
        {
          "Name": "Espaillat",
          "Number": 8,
          "Min": 1,
          "Max": 10
        },
        {
          "Name": "MariaTrinidadSanchez",
          "Number": 9,
          "Min": 1,
          "Max": 10
        },
        {
          "Name": "Samana",
          "Number": 10,
          "Min": 1,
          "Max": 10
        }
      ]
    },
    "Multiplication": {
      "LastLevelPassed": 0,
      "Levels": [
        {
          "Name": "MonteCristi",
          "Number": 1,
          "Min": 1,
          "Max": 10
        },
        {
          "Name": "Valverde",
          "Number": 2,
          "Min": 1,
          "Max": 10
        },
        {
          "Name": "SantiagoRodriguez",
          "Number": 3,
          "Min": 1,
          "Max": 10
        },
        {
          "Name": "Dajabon",
          "Number": 4,
          "Min": 1,
          "Max": 10
        },
        {
          "Name": "EliasPigna",
          "Number": 5,
          "Min": 1,
          "Max": 10
        },
        {
          "Name": "SanJuan",
          "Number": 6,
          "Min": 1,
          "Max": 10
        },
        {
          "Name": "Independencia",
          "Number": 7,
          "Min": 1,
          "Max": 10
        },
        {
          "Name": "Bahoruco",
          "Number": 8,
          "Min": 1,
          "Max": 10
        },
        {
          "Name": "Azua",
          "Number": 9,
          "Min": 1,
          "Max": 10
        },
        {
          "Name": "Barahona",
          "Number": 10,
          "Min": 1,
          "Max": 10
        }
      ]
    },
    "Division": {
      "LastLevelPassed": 0,
      "Levels": [
        {
          "Name": "Pedernales",
          "Number": 1,
          "Min": 1,
          "Max": 10
        },
        {
          "Name": "Barahona",
          "Number": 2,
          "Min": 1,
          "Max": 10
        },
        {
          "Name": "Azua",
          "Number": 3,
          "Min": 1,
          "Max": 10
        },
        {
          "Name": "LaVega",
          "Number": 4,
          "Min": 1,
          "Max": 10
        },
        {
          "Name": "Duarte",
          "Number": 5,
          "Min": 1,
          "Max": 10
        },
        {
          "Name": "Samana",
          "Number": 6,
          "Min": 1,
          "Max": 10
        },
        {
          "Name": "MontePlata",
          "Number": 7,
          "Min": 1,
          "Max": 10
        },
        {
          "Name": "HatoMayor",
          "Number": 8,
          "Min": 1,
          "Max": 10
        },
        {
          "Name": "ElSeibo",
          "Number": 9,
          "Min": 1,
          "Max": 10
        },
        {
          "Name": "LaAltagracia",
          "Number": 10,
          "Min": 1,
          "Max": 10
        }
      ]
    }
  }
}
